transcript
# Reading D:/WORKING_FOLDER/echo_cancelation/modelsim_ase/tcl/vsim/pref.tcl
# OpenFile D:/WORKING_FOLDER/echo_cancelation/A_code/echo_cancelation.mpf
# Loading project echo_cancelation
vsim -gui work.tb_all
# vsim -gui work.tb_all 
# Start time: 10:25:26 on Aug 13,2018
# Loading work.tb_all
# Loading work.signal_generator
# Loading work.sig16b_to_double
# Loading work.lag_generator
# Loading work.fpu
# Loading work.fpu_add
# Loading work.fpu_sub
# Loading work.fpu_mul
# Loading work.fpu_div
# Loading work.fpu_round
# Loading work.fpu_exceptions
# Loading work.echo_approx
run
#  ##count_operation: 1 ##lag_0: 100000001110 ##para_0: 110000000010 ##lag_0*para_0: 010000010001 ##lag_1: 100000001101 ##para_1: 110000000010 ##lag_1*para_1: 110000010001 ##lag_2: 000000001110 ##para_2: 110000000010 ##lag_2*para_2: 000000011101 ##lag_3: 000000001110 ##para_3: 110000000010 ##lag_3*para_3: 000000011011
#  ##count_operation: 2 ##lag_0: 100000001110 ##para_0: 110000000010 ##lag_0*para_0: 010000001100 ##lag_1: 100000001101 ##para_1: 110000000010 ##lag_1*para_1: 000000011110 ##lag_2: 000000001110 ##para_2: 110000000010 ##lag_2*para_2: 000000011101 ##lag_3: 000000001110 ##para_3: 110000000010 ##lag_3*para_3: 000000011011
#  ##count_operation: 1 ##lag_0: 000000001101 ##para_0: 011111100100 ##lag_0*para_0: 111111110010 ##lag_1: 100000001110 ##para_1: 011111100100 ##lag_1*para_1: 000000001100 ##lag_2: 100000001101 ##para_2: 000000000000 ##lag_2*para_2: 000000011010 ##lag_3: 000000001110 ##para_3: 000000000000 ##lag_3*para_3: 000000011101
#  ##count_operation: 2 ##lag_0: 000000001101 ##para_0: 011111100100 ##lag_0*para_0: 000000001100 ##lag_1: 100000001110 ##para_1: 011111100100 ##lag_1*para_1: 000000011110 ##lag_2: 100000001101 ##para_2: 000000000000 ##lag_2*para_2: 000000011010 ##lag_3: 000000001110 ##para_3: 000000000000 ##lag_3*para_3: 000000011101
#  ##count_operation: 1 ##lag_0: 000000001110 ##para_0: 011111100101 ##lag_0*para_0: 011111110100 ##lag_1: 000000001101 ##para_1: 011111100100 ##lag_1*para_1: 100000010001 ##lag_2: 100000001110 ##para_2: 000000000010 ##lag_2*para_2: 000000011100 ##lag_3: 100000001101 ##para_3: 000000000001 ##lag_3*para_3: 000000011010
#  ##count_operation: 2 ##lag_0: 000000001110 ##para_0: 011111100101 ##lag_0*para_0: 100000010001 ##lag_1: 000000001101 ##para_1: 011111100100 ##lag_1*para_1: 000000011100 ##lag_2: 100000001110 ##para_2: 000000000010 ##lag_2*para_2: 000000011100 ##lag_3: 100000001101 ##para_3: 000000000001 ##lag_3*para_3: 000000011010
#  ##count_operation: 1 ##lag_0: 100000001110 ##para_0: 011111100111 ##lag_0*para_0: 111111110101 ##lag_1: 000000001110 ##para_1: 011111100110 ##lag_1*para_1: 100000010000 ##lag_2: 000000001101 ##para_2: 000000000011 ##lag_2*para_2: 000000011101 ##lag_3: 100000001110 ##para_3: 000000000010 ##lag_3*para_3: 000000011100
#  ##count_operation: 2 ##lag_0: 100000001110 ##para_0: 011111100111 ##lag_0*para_0: 100000010000 ##lag_1: 000000001110 ##para_1: 011111100110 ##lag_1*para_1: 000000011101 ##lag_2: 000000001101 ##para_2: 000000000011 ##lag_2*para_2: 000000011101 ##lag_3: 100000001110 ##para_3: 000000000010 ##lag_3*para_3: 000000011100
restart
add wave -position insertpoint sim:/tb_all/*
# ** Warning: (vsim-WLF-5000) WLF file currently in use: vsim.wlf
#           File in use by: ankai  Hostname: LAPTOP-VQG426F9  ProcessID: 7896
#           Attempting to use alternate WLF file "./wlftn2t2yd".
# ** Warning: (vsim-WLF-5001) Could not open WLF file: vsim.wlf
#           Using alternate file: ./wlftn2t2yd
run
# GetModuleFileName: The specified module could not be found.
# 
# 
#  ##count_operation: 1 ##lag_0: 100000001110 ##para_0: 110000000010 ##lag_0*para_0: 010000010001 ##lag_1: 100000001101 ##para_1: 110000000010 ##lag_1*para_1: 110000010001 ##lag_2: 000000001110 ##para_2: 110000000010 ##lag_2*para_2: 000000011101 ##lag_3: 000000001110 ##para_3: 110000000010 ##lag_3*para_3: 000000011011
#  ##count_operation: 2 ##lag_0: 100000001110 ##para_0: 110000000010 ##lag_0*para_0: 010000001100 ##lag_1: 100000001101 ##para_1: 110000000010 ##lag_1*para_1: 000000011110 ##lag_2: 000000001110 ##para_2: 110000000010 ##lag_2*para_2: 000000011101 ##lag_3: 000000001110 ##para_3: 110000000010 ##lag_3*para_3: 000000011011
#  ##count_operation: 1 ##lag_0: 000000001101 ##para_0: 011111100100 ##lag_0*para_0: 111111110010 ##lag_1: 100000001110 ##para_1: 011111100100 ##lag_1*para_1: 000000001100 ##lag_2: 100000001101 ##para_2: 000000000000 ##lag_2*para_2: 000000011010 ##lag_3: 000000001110 ##para_3: 000000000000 ##lag_3*para_3: 000000011101
#  ##count_operation: 2 ##lag_0: 000000001101 ##para_0: 011111100100 ##lag_0*para_0: 000000001100 ##lag_1: 100000001110 ##para_1: 011111100100 ##lag_1*para_1: 000000011110 ##lag_2: 100000001101 ##para_2: 000000000000 ##lag_2*para_2: 000000011010 ##lag_3: 000000001110 ##para_3: 000000000000 ##lag_3*para_3: 000000011101
#  ##count_operation: 1 ##lag_0: 000000001110 ##para_0: 011111100101 ##lag_0*para_0: 011111110100 ##lag_1: 000000001101 ##para_1: 011111100100 ##lag_1*para_1: 100000010001 ##lag_2: 100000001110 ##para_2: 000000000010 ##lag_2*para_2: 000000011100 ##lag_3: 100000001101 ##para_3: 000000000001 ##lag_3*para_3: 000000011010
#  ##count_operation: 2 ##lag_0: 000000001110 ##para_0: 011111100101 ##lag_0*para_0: 100000010001 ##lag_1: 000000001101 ##para_1: 011111100100 ##lag_1*para_1: 000000011100 ##lag_2: 100000001110 ##para_2: 000000000010 ##lag_2*para_2: 000000011100 ##lag_3: 100000001101 ##para_3: 000000000001 ##lag_3*para_3: 000000011010
#  ##count_operation: 1 ##lag_0: 100000001110 ##para_0: 011111100111 ##lag_0*para_0: 111111110101 ##lag_1: 000000001110 ##para_1: 011111100110 ##lag_1*para_1: 100000010000 ##lag_2: 000000001101 ##para_2: 000000000011 ##lag_2*para_2: 000000011101 ##lag_3: 100000001110 ##para_3: 000000000010 ##lag_3*para_3: 000000011100
#  ##count_operation: 2 ##lag_0: 100000001110 ##para_0: 011111100111 ##lag_0*para_0: 100000010000 ##lag_1: 000000001110 ##para_1: 011111100110 ##lag_1*para_1: 000000011101 ##lag_2: 000000001101 ##para_2: 000000000011 ##lag_2*para_2: 000000011101 ##lag_3: 100000001110 ##para_3: 000000000010 ##lag_3*para_3: 000000011100
run
#  ##count_operation: 1 ##lag_0: 100000001110 ##para_0: 011111101000 ##lag_0*para_0: 111111110111 ##lag_1: 100000001110 ##para_1: 011111100111 ##lag_1*para_1: 000000010011 ##lag_2: 000000001110 ##para_2: 000000000100 ##lag_2*para_2: 000000011101 ##lag_3: 000000001101 ##para_3: 000000000011 ##lag_3*para_3: 000000011101
#  ##count_operation: 2 ##lag_0: 100000001110 ##para_0: 011111101000 ##lag_0*para_0: 000000010011 ##lag_1: 100000001110 ##para_1: 011111100111 ##lag_1*para_1: 000000011110 ##lag_2: 000000001110 ##para_2: 000000000100 ##lag_2*para_2: 000000011101 ##lag_3: 000000001101 ##para_3: 000000000011 ##lag_3*para_3: 000000011101
#  ##count_operation: 1 ##lag_0: 000000001101 ##para_0: 011111101001 ##lag_0*para_0: 011111110000 ##lag_1: 100000001110 ##para_1: 011111101000 ##lag_1*para_1: 100000010011 ##lag_2: 100000001110 ##para_2: 000000000101 ##lag_2*para_2: 000000011011 ##lag_3: 000000001110 ##para_3: 000000000100 ##lag_3*para_3: 000000011101
#  ##count_operation: 2 ##lag_0: 000000001101 ##para_0: 011111101001 ##lag_0*para_0: 100000010011 ##lag_1: 100000001110 ##para_1: 011111101000 ##lag_1*para_1: 000000011110 ##lag_2: 100000001110 ##para_2: 000000000101 ##lag_2*para_2: 000000011011 ##lag_3: 000000001110 ##para_3: 000000000100 ##lag_3*para_3: 000000011101
#  ##count_operation: 1 ##lag_0: 000000001110 ##para_0: 011111101010 ##lag_0*para_0: 011111111001 ##lag_1: 000000001101 ##para_1: 011111101001 ##lag_1*para_1: 100000010110 ##lag_2: 100000001110 ##para_2: 000000000110 ##lag_2*para_2: 000000011100 ##lag_3: 100000001110 ##para_3: 000000000101 ##lag_3*para_3: 000000011011
#  ##count_operation: 2 ##lag_0: 000000001110 ##para_0: 011111101010 ##lag_0*para_0: 100000010110 ##lag_1: 000000001101 ##para_1: 011111101001 ##lag_1*para_1: 000000011101 ##lag_2: 100000001110 ##para_2: 000000000110 ##lag_2*para_2: 000000011100 ##lag_3: 100000001110 ##para_3: 000000000101 ##lag_3*para_3: 000000011011
#  ##count_operation: 1 ##lag_0: 000000001110 ##para_0: 011111101011 ##lag_0*para_0: 011111111010 ##lag_1: 000000001110 ##para_1: 011111101010 ##lag_1*para_1: 000000010010 ##lag_2: 000000001101 ##para_2: 000000000111 ##lag_2*para_2: 000000011100 ##lag_3: 100000001110 ##para_3: 000000000110 ##lag_3*para_3: 000000011100
#  ##count_operation: 2 ##lag_0: 000000001110 ##para_0: 011111101011 ##lag_0*para_0: 000000010010 ##lag_1: 000000001110 ##para_1: 011111101010 ##lag_1*para_1: 000000011101 ##lag_2: 000000001101 ##para_2: 000000000111 ##lag_2*para_2: 000000011100 ##lag_3: 100000001110 ##para_3: 000000000110 ##lag_3*para_3: 000000011100
#  ##count_operation: 1 ##lag_0: 100000001101 ##para_0: 011111101100 ##lag_0*para_0: 111111111000 ##lag_1: 000000001110 ##para_1: 011111101011 ##lag_1*para_1: 000000010111 ##lag_2: 000000001110 ##para_2: 000000001000 ##lag_2*para_2: 000000011011 ##lag_3: 000000001101 ##para_3: 000000000111 ##lag_3*para_3: 000000011100
#  ##count_operation: 2 ##lag_0: 100000001101 ##para_0: 011111101100 ##lag_0*para_0: 000000010111 ##lag_1: 000000001110 ##para_1: 011111101011 ##lag_1*para_1: 000000011101 ##lag_2: 000000001110 ##para_2: 000000001000 ##lag_2*para_2: 000000011011 ##lag_3: 000000001101 ##para_3: 000000000111 ##lag_3*para_3: 000000011100
#  ##count_operation: 1 ##lag_0: 000000001110 ##para_0: 011111101101 ##lag_0*para_0: 011111111100 ##lag_1: 100000001101 ##para_1: 011111101100 ##lag_1*para_1: 000000011000 ##lag_2: 000000001110 ##para_2: 000000001001 ##lag_2*para_2: 000000011101 ##lag_3: 000000001110 ##para_3: 000000001000 ##lag_3*para_3: 000000011011
#  ##count_operation: 2 ##lag_0: 000000001110 ##para_0: 011111101101 ##lag_0*para_0: 000000011000 ##lag_1: 100000001101 ##para_1: 011111101100 ##lag_1*para_1: 000000011101 ##lag_2: 000000001110 ##para_2: 000000001001 ##lag_2*para_2: 000000011101 ##lag_3: 000000001110 ##para_3: 000000001000 ##lag_3*para_3: 000000011011
#  ##count_operation: 1 ##lag_0: 000000001110 ##para_0: 011111101110 ##lag_0*para_0: 011111111110 ##lag_1: 000000001110 ##para_1: 011111101101 ##lag_1*para_1: 100000010110 ##lag_2: 100000001101 ##para_2: 000000001010 ##lag_2*para_2: 000000011100 ##lag_3: 000000001110 ##para_3: 000000001001 ##lag_3*para_3: 000000011101
#  ##count_operation: 2 ##lag_0: 000000001110 ##para_0: 011111101110 ##lag_0*para_0: 100000010110 ##lag_1: 000000001110 ##para_1: 011111101101 ##lag_1*para_1: 000000011110 ##lag_2: 100000001101 ##para_2: 000000001010 ##lag_2*para_2: 000000011100 ##lag_3: 000000001110 ##para_3: 000000001001 ##lag_3*para_3: 000000011101
#  ##count_operation: 1 ##lag_0: 000000001110 ##para_0: 011111101111 ##lag_0*para_0: 011111111111 ##lag_1: 000000001110 ##para_1: 011111101110 ##lag_1*para_1: 000000011010 ##lag_2: 000000001110 ##para_2: 000000001011 ##lag_2*para_2: 000000011101 ##lag_3: 100000001101 ##para_3: 000000001010 ##lag_3*para_3: 000000011100
#  ##count_operation: 2 ##lag_0: 000000001110 ##para_0: 011111101111 ##lag_0*para_0: 000000011010 ##lag_1: 000000001110 ##para_1: 011111101110 ##lag_1*para_1: 000000011110 ##lag_2: 000000001110 ##para_2: 000000001011 ##lag_2*para_2: 000000011101 ##lag_3: 100000001101 ##para_3: 000000001010 ##lag_3*para_3: 000000011100
#  ##count_operation: 1 ##lag_0: 100000001011 ##para_0: 011111110000 ##lag_0*para_0: 011111111110 ##lag_1: 000000001110 ##para_1: 011111101111 ##lag_1*para_1: 000000011011 ##lag_2: 000000001110 ##para_2: 000000001100 ##lag_2*para_2: 000000010110 ##lag_3: 000000001110 ##para_3: 000000001011 ##lag_3*para_3: 000000011101
#  ##count_operation: 2 ##lag_0: 100000001011 ##para_0: 011111110000 ##lag_0*para_0: 000000011011 ##lag_1: 000000001110 ##para_1: 011111101111 ##lag_1*para_1: 000000011101 ##lag_2: 000000001110 ##para_2: 000000001100 ##lag_2*para_2: 000000010110 ##lag_3: 000000001110 ##para_3: 000000001011 ##lag_3*para_3: 000000011101
#  ##count_operation: 1 ##lag_0: 000000001100 ##para_0: 011111110001 ##lag_0*para_0: 011111111101 ##lag_1: 100000001011 ##para_1: 011111110000 ##lag_1*para_1: 000000011101 ##lag_2: 000000001110 ##para_2: 000000001101 ##lag_2*para_2: 000000011000 ##lag_3: 000000001110 ##para_3: 000000001100 ##lag_3*para_3: 000000010110
#  ##count_operation: 2 ##lag_0: 000000001100 ##para_0: 011111110001 ##lag_0*para_0: 000000011101 ##lag_1: 100000001011 ##para_1: 011111110000 ##lag_1*para_1: 000000011000 ##lag_2: 000000001110 ##para_2: 000000001101 ##lag_2*para_2: 000000011000 ##lag_3: 000000001110 ##para_3: 000000001100 ##lag_3*para_3: 000000010110
quit -sim
# End time: 10:34:12 on Aug 13,2018, Elapsed time: 0:08:46
# Errors: 0, Warnings: 2
# Compile of echo_approx.v was successful.
# Compile of tb_all.v was successful.
vsim -gui work.tb_all
# vsim -gui work.tb_all 
# Start time: 10:36:17 on Aug 13,2018
# Loading work.tb_all
# Loading work.signal_generator
# Loading work.sig16b_to_double
# Loading work.lag_generator
# Loading work.fpu
# Loading work.fpu_add
# Loading work.fpu_sub
# Loading work.fpu_mul
# Loading work.fpu_div
# Loading work.fpu_round
# Loading work.fpu_exceptions
# Loading work.echo_approx
add wave -position insertpoint sim:/tb_all/*
# ** Warning: (vsim-WLF-5000) WLF file currently in use: vsim.wlf
#           File in use by: ankai  Hostname: LAPTOP-VQG426F9  ProcessID: 7896
#           Attempting to use alternate WLF file "./wlftfef82k".
# ** Warning: (vsim-WLF-5001) Could not open WLF file: vsim.wlf
#           Using alternate file: ./wlftfef82k
run
##iteration:           0
##iteration:           0
##iteration:           0
##iteration:           0
##iteration:           0
##iteration:           0
#  ##count_operation: 1 ##lag_0: 100000001110 ##para_0: 110000000010 ##lag_0*para_0: 010000010001 ##lag_1: 100000001101 ##para_1: 110000000010 ##lag_1*para_1: 110000010001 ##lag_2: 000000001110 ##para_2: 110000000010 ##lag_2*para_2: 000000011101 ##lag_3: 000000001110 ##para_3: 110000000010 ##lag_3*para_3: 000000011011
#  ##count_operation: 2 ##lag_0: 100000001110 ##para_0: 110000000010 ##lag_0*para_0: 010000001100 ##lag_1: 100000001101 ##para_1: 110000000010 ##lag_1*para_1: 000000011110 ##lag_2: 000000001110 ##para_2: 110000000010 ##lag_2*para_2: 000000011101 ##lag_3: 000000001110 ##para_3: 110000000010 ##lag_3*para_3: 000000011011
##iteration:           1
#  ##count_operation: 1 ##lag_0: 000000001101 ##para_0: 011111100100 ##lag_0*para_0: 111111110010 ##lag_1: 100000001110 ##para_1: 011111100100 ##lag_1*para_1: 000000001100 ##lag_2: 100000001101 ##para_2: 000000000000 ##lag_2*para_2: 000000011010 ##lag_3: 000000001110 ##para_3: 000000000000 ##lag_3*para_3: 000000011101
#  ##count_operation: 2 ##lag_0: 000000001101 ##para_0: 011111100100 ##lag_0*para_0: 000000001100 ##lag_1: 100000001110 ##para_1: 011111100100 ##lag_1*para_1: 000000011110 ##lag_2: 100000001101 ##para_2: 000000000000 ##lag_2*para_2: 000000011010 ##lag_3: 000000001110 ##para_3: 000000000000 ##lag_3*para_3: 000000011101
##iteration:           2
#  ##count_operation: 1 ##lag_0: 000000001110 ##para_0: 011111100101 ##lag_0*para_0: 011111110100 ##lag_1: 000000001101 ##para_1: 011111100100 ##lag_1*para_1: 100000010001 ##lag_2: 100000001110 ##para_2: 000000000010 ##lag_2*para_2: 000000011100 ##lag_3: 100000001101 ##para_3: 000000000001 ##lag_3*para_3: 000000011010
#  ##count_operation: 2 ##lag_0: 000000001110 ##para_0: 011111100101 ##lag_0*para_0: 100000010001 ##lag_1: 000000001101 ##para_1: 011111100100 ##lag_1*para_1: 000000011100 ##lag_2: 100000001110 ##para_2: 000000000010 ##lag_2*para_2: 000000011100 ##lag_3: 100000001101 ##para_3: 000000000001 ##lag_3*para_3: 000000011010
##iteration:           3
#  ##count_operation: 1 ##lag_0: 100000001110 ##para_0: 011111100111 ##lag_0*para_0: 111111110101 ##lag_1: 000000001110 ##para_1: 011111100110 ##lag_1*para_1: 100000010000 ##lag_2: 000000001101 ##para_2: 000000000011 ##lag_2*para_2: 000000011101 ##lag_3: 100000001110 ##para_3: 000000000010 ##lag_3*para_3: 000000011100
#  ##count_operation: 2 ##lag_0: 100000001110 ##para_0: 011111100111 ##lag_0*para_0: 100000010000 ##lag_1: 000000001110 ##para_1: 011111100110 ##lag_1*para_1: 000000011101 ##lag_2: 000000001101 ##para_2: 000000000011 ##lag_2*para_2: 000000011101 ##lag_3: 100000001110 ##para_3: 000000000010 ##lag_3*para_3: 000000011100
# WARNING: No extended dataflow license exists
restart
add wave -position insertpoint sim:/tb_all/MUT3/*
run
# GetModuleFileName: The specified module could not be found.
# 
# 
##iteration:           0
##iteration:           0
##iteration:           0
##iteration:           0
##iteration:           0
##iteration:           0
#  ##count_operation: 1 ##lag_0: 100000001110 ##para_0: 110000000010 ##lag_0*para_0: 010000010001 ##lag_1: 100000001101 ##para_1: 110000000010 ##lag_1*para_1: 110000010001 ##lag_2: 000000001110 ##para_2: 110000000010 ##lag_2*para_2: 000000011101 ##lag_3: 000000001110 ##para_3: 110000000010 ##lag_3*para_3: 000000011011
#  ##count_operation: 2 ##lag_0: 100000001110 ##para_0: 110000000010 ##lag_0*para_0: 010000001100 ##lag_1: 100000001101 ##para_1: 110000000010 ##lag_1*para_1: 000000011110 ##lag_2: 000000001110 ##para_2: 110000000010 ##lag_2*para_2: 000000011101 ##lag_3: 000000001110 ##para_3: 110000000010 ##lag_3*para_3: 000000011011
##iteration:           1
#  ##count_operation: 1 ##lag_0: 000000001101 ##para_0: 011111100100 ##lag_0*para_0: 111111110010 ##lag_1: 100000001110 ##para_1: 011111100100 ##lag_1*para_1: 000000001100 ##lag_2: 100000001101 ##para_2: 000000000000 ##lag_2*para_2: 000000011010 ##lag_3: 000000001110 ##para_3: 000000000000 ##lag_3*para_3: 000000011101
#  ##count_operation: 2 ##lag_0: 000000001101 ##para_0: 011111100100 ##lag_0*para_0: 000000001100 ##lag_1: 100000001110 ##para_1: 011111100100 ##lag_1*para_1: 000000011110 ##lag_2: 100000001101 ##para_2: 000000000000 ##lag_2*para_2: 000000011010 ##lag_3: 000000001110 ##para_3: 000000000000 ##lag_3*para_3: 000000011101
##iteration:           2
#  ##count_operation: 1 ##lag_0: 000000001110 ##para_0: 011111100101 ##lag_0*para_0: 011111110100 ##lag_1: 000000001101 ##para_1: 011111100100 ##lag_1*para_1: 100000010001 ##lag_2: 100000001110 ##para_2: 000000000010 ##lag_2*para_2: 000000011100 ##lag_3: 100000001101 ##para_3: 000000000001 ##lag_3*para_3: 000000011010
#  ##count_operation: 2 ##lag_0: 000000001110 ##para_0: 011111100101 ##lag_0*para_0: 100000010001 ##lag_1: 000000001101 ##para_1: 011111100100 ##lag_1*para_1: 000000011100 ##lag_2: 100000001110 ##para_2: 000000000010 ##lag_2*para_2: 000000011100 ##lag_3: 100000001101 ##para_3: 000000000001 ##lag_3*para_3: 000000011010
##iteration:           3
#  ##count_operation: 1 ##lag_0: 100000001110 ##para_0: 011111100111 ##lag_0*para_0: 111111110101 ##lag_1: 000000001110 ##para_1: 011111100110 ##lag_1*para_1: 100000010000 ##lag_2: 000000001101 ##para_2: 000000000011 ##lag_2*para_2: 000000011101 ##lag_3: 100000001110 ##para_3: 000000000010 ##lag_3*para_3: 000000011100
#  ##count_operation: 2 ##lag_0: 100000001110 ##para_0: 011111100111 ##lag_0*para_0: 100000010000 ##lag_1: 000000001110 ##para_1: 011111100110 ##lag_1*para_1: 000000011101 ##lag_2: 000000001101 ##para_2: 000000000011 ##lag_2*para_2: 000000011101 ##lag_3: 100000001110 ##para_3: 000000000010 ##lag_3*para_3: 000000011100
