transcript
# Reading D:/WORKING_FOLDER/echo_cancelation/modelsim_ase/tcl/vsim/pref.tcl
# OpenFile D:/WORKING_FOLDER/echo_cancelation/A_code/echo_cancelation.mpf
# Loading project echo_cancelation
# Load canceled
# Compile of tb_all.v was successful.
vsim -gui work.tb_all
# vsim -gui work.tb_all 
# Start time: 21:33:51 on Aug 23,2018
# Loading work.tb_all
# Loading work.signal_generator
# Loading work.sig16b_to_double
# Loading work.lag_generator
# Loading work.fpu
# Loading work.fpu_add
# Loading work.fpu_sub
# Loading work.fpu_mul
# Loading work.fpu_div
# Loading work.fpu_round
# Loading work.fpu_exceptions
# Loading work.echo_approx
add wave -position insertpoint sim:/tb_all/*
# ** Warning: (vsim-WLF-5000) WLF file currently in use: vsim.wlf
#           File in use by: ankai  Hostname: LAPTOP-VQG426F9  ProcessID: 7896
#           Attempting to use alternate WLF file "./wlft5xytyi".
# ** Warning: (vsim-WLF-5001) Could not open WLF file: vsim.wlf
#           Using alternate file: ./wlft5xytyi
run
##iteration:           0
##iteration:           0
##iteration:           0
##iteration:           0
##iteration:           0
##iteration:           0
##e: 1100000010000111100100000000000010100101011000100010100010111010##e_exp:    9##normalize_amp: 0100000111011000001100100111010000100110000100000000000000000000##normalize_amp:  4744597681870995456
##e: 1100000010000111100100000000000010100101011000100010100010111010##e_exp:    9##normalize_amp: 0100000111011000001100100111010000100110000100000000000000000000##normalize_amp:  4744597681870995456
##iteration:           1
##e: 1100000010110101110100101101001010001101011001001000001110100011##e_exp:   12##normalize_amp: 0100000111011011001101000111101100000010010100000000000000000000##normalize_amp:  4745444335289368576
##e: 1100000010110101110100101101001010001101011001001000001110100011##e_exp:   12##normalize_amp: 0100000111011011001101000111101100000010010100000000000000000000##normalize_amp:  4745444335289368576
##iteration:           2
##e: 1100000011000101010000011101101010111101111001101010101111011011##e_exp:   13##normalize_amp: 0100000111000010111100100000001000001010101000000000000000000000##normalize_amp:  4738615848529297408
##e: 1100000011000101010000011101101010111101111001101010101111011011##e_exp:   13##normalize_amp: 0100000111000010111100100000001000001010101000000000000000000000##normalize_amp:  4738615848529297408
##iteration:           3
##e: 1100000011010101101011001011011101000101001111000101100001100101##e_exp:   14##normalize_amp: 0100000111011101101111111111111101100000100100000000000000000000##normalize_amp:  4746160685875986432
##e: 1100000011010101101011001011011101000101001111000101100001100101##e_exp:   14##normalize_amp: 0100000111011101101111111111111101100000100100000000000000000000##normalize_amp:  4746160685875986432
run
##iteration:           4
##e: 1100000011100001000000101001010100011011001110000000101011110101##e_exp:   15##normalize_amp: 0100000111010111011111011011000011001011010100000000000000000000##normalize_amp:  4744398930736840704
##e: 1100000011100001000000101001010100011011001110000000101011110101##e_exp:   15##normalize_amp: 0100000111010111011111011011000011001011010100000000000000000000##normalize_amp:  4744398930736840704
##iteration:           5
##e: 1100000011001100110011000001001000010111101001101011011001001111##e_exp:   13##normalize_amp: 0100000111010101100001100011111011010011010100000000000000000000##normalize_amp:  4743845386896015360
##e: 1100000011001100110011000001001000010111101001101011011001001111##e_exp:   13##normalize_amp: 0100000111010101100001100011111011010011010100000000000000000000##normalize_amp:  4743845386896015360
##iteration:           6
##e: 1100000011001100000101011101110001011101001010100101001100101111##e_exp:   13##normalize_amp: 0100000111010010111100011111100001010000010100000000000000000000##normalize_amp:  4743119406376157184
##e: 1100000011001100000101011101110001011101001010100101001100101111##e_exp:   13##normalize_amp: 0100000111010010111100011111100001010000010100000000000000000000##normalize_amp:  4743119406376157184
##iteration:           7
##e: 0100000010011110100111110000110011110001000101011010111010110000##e_exp:   10##normalize_amp: 0100000111011000011111010110100011000010110100000000000000000000##normalize_amp:  4744680096333299712
##e: 0100000010011110100111110000110011110001000101011010111010110000##e_exp:   10##normalize_amp: 0100000111011000011111010110100011000010110100000000000000000000##normalize_amp:  4744680096333299712
##iteration:           8
##e: 1100000010110000101100110101100100010011111001010101111100000000##e_exp:   12##normalize_amp: 0100000111000111101110000111101000001101101000000000000000000000##normalize_amp:  4739959967184846848
##e: 1100000010110000101100110101100100010011111001010101111100000000##e_exp:   12##normalize_amp: 0100000111000111101110000111101000001101101000000000000000000000##normalize_amp:  4739959967184846848
##iteration:           9
##e: 0100000010110111011001111000001011011101000001000101000011010000##e_exp:   12##normalize_amp: 0100000111010101110001001010110101110110110100000000000000000000##normalize_amp:  4743914031806414848
##e: 0100000010110111011001111000001011011101000001000101000011010000##e_exp:   12##normalize_amp: 0100000111010101110001001010110101110110110100000000000000000000##normalize_amp:  4743914031806414848
##iteration:          10
##e: 0100000011000111100110110000001111011101000000000001111111000101##e_exp:   13##normalize_amp: 0100000111011001001010110101011000100010110100000000000000000000##normalize_amp:  4744871331362766848
##e: 0100000011000111100110110000001111011101000000000001111111000101##e_exp:   13##normalize_amp: 0100000111011001001010110101011000100010110100000000000000000000##normalize_amp:  4744871331362766848
##iteration:          11
##e: 1100000010110000000110011111001000111100100001101000101011100000##e_exp:   12##normalize_amp: 0100000111010101001011111011111010110011100100000000000000000000##normalize_amp:  4743750278607536128
##e: 1100000010110000000110011111001000111100100001101000101011100000##e_exp:   12##normalize_amp: 0100000111010101001011111011111010110011100100000000000000000000##normalize_amp:  4743750278607536128
##iteration:          12
##e: 0100000001110010100010101000100101101100101111010011101110000000##e_exp:    8##normalize_amp: 0100000111011001110000001101000001010110010100000000000000000000##normalize_amp:  4745035683445342208
##e: 0100000001110010100010101000100101101100101111010011101110000000##e_exp:    8##normalize_amp: 0100000111011001110000001101000001010110010100000000000000000000##normalize_amp:  4745035683445342208
##iteration:          13
##e: 1100000010001101101010000001100001101001011000010001001011100000##e_exp:    9##normalize_amp: 0100000110111010100000100100010111000010010000000000000000000000##normalize_amp:  4736241194256826368
##e: 1100000010001101101010000001100001101001011000010001001011100000##e_exp:    9##normalize_amp: 0100000110111010100000100100010111000010010000000000000000000000##normalize_amp:  4736241194256826368
run
##iteration:          14
##e: 1100000001101010101001101010111101111101001100111110101100000000##e_exp:    7##normalize_amp: 0100000111010101000011110111001101100000010100000000000000000000##normalize_amp:  4743714770716196864
##e: 1100000001101010101001101010111101111101001100111110101100000000##e_exp:    7##normalize_amp: 0100000111010101000011110111001101100000010100000000000000000000##normalize_amp:  4743714770716196864
##iteration:          15
##e: 0100000010010101110100111110011110100010010101000101100110100000##e_exp:   10##normalize_amp: 0100000111000010100010100110011001100000101000000000000000000000##normalize_amp:  4738501930259578880
##e: 0100000010010101110100111110011110100010010101000101100110100000##e_exp:   10##normalize_amp: 0100000111000010100010100110011001100000101000000000000000000000##normalize_amp:  4738501930259578880
##iteration:          16
##e: 0100000010010001001001010101111110101011011010111111001000001100##e_exp:   10##normalize_amp: 0100000110110000101101010101100110011001010000000000000000000000##normalize_amp:  4733482604794216448
##e: 0100000010010001001001010101111110101011011010111111001000001100##e_exp:   10##normalize_amp: 0100000110110000101101010101100110011001010000000000000000000000##normalize_amp:  4733482604794216448
##iteration:          17
##e: 1100000010100001011001111011010110010110000110010001010001101110##e_exp:   11##normalize_amp: 0100000111001110011101100011100100101111101000000000000000000000##normalize_amp:  4741857445651939328
##e: 1100000010100001011001111011010110010110000110010001010001101110##e_exp:   11##normalize_amp: 0100000111001110011101100011100100101111101000000000000000000000##normalize_amp:  4741857445651939328
##iteration:          18
##e: 0100000010011100000011111110111000110100011001111111001000101100##e_exp:   10##normalize_amp: 0100000111001000111011111111100011000001001000000000000000000000##normalize_amp:  4740302459478474752
##e: 0100000010011100000011111110111000110100011001111111001000101100##e_exp:   10##normalize_amp: 0100000111001000111011111111100011000001001000000000000000000000##normalize_amp:  4740302459478474752
##iteration:          19
##e: 0100000001100111101010111111110010000010100011011011010100000000##e_exp:    7##normalize_amp: 0100000111001000111000101010110110011001001000000000000000000000##normalize_amp:  4740287843033677824
##e: 0100000001100111101010111111110010000010100011011011010100000000##e_exp:    7##normalize_amp: 0100000111001000111000101010110110011001001000000000000000000000##normalize_amp:  4740287843033677824
##iteration:          20
##e: 1100000010001010111111100010100001111101000110111001010100110000##e_exp:    9##normalize_amp: 0100000111010011110111111000011001110011100100000000000000000000##normalize_amp:  4743380601108692992
##e: 1100000010001010111111100010100001111101000110111001010100110000##e_exp:    9##normalize_amp: 0100000111010011110111111000011001110011100100000000000000000000##normalize_amp:  4743380601108692992
##iteration:          21
##e: 0100000010000100101111000010111010001100101100001110010100000000##e_exp:    9##normalize_amp: 0100000111011011001001100000000001001101010100000000000000000000##normalize_amp:  4745428415103893504
##e: 0100000010000100101111000010111010001100101100001110010100000000##e_exp:    9##normalize_amp: 0100000111011011001001100000000001001101010100000000000000000000##normalize_amp:  4745428415103893504
##iteration:          22
##e: 0100000010001010101001111011111010100011100110110100110101100000##e_exp:    9##normalize_amp: 0100000111001110111011000111111101001101101000000000000000000000##normalize_amp:  4741987489175044096
##e: 0100000010001010101001111011111010100011100110110100110101100000##e_exp:    9##normalize_amp: 0100000111001110111011000111111101001101101000000000000000000000##normalize_amp:  4741987489175044096
##iteration:          23
##e: 0100000010011100111001110010101101110010101100001010110001100000##e_exp:   10##normalize_amp: 0100000111011000000101111110110001100101100100000000000000000000##normalize_amp:  4744568511518474240
##e: 0100000010011100111001110010101101110010101100001010110001100000##e_exp:   10##normalize_amp: 0100000111011000000101111110110001100101100100000000000000000000##normalize_amp:  4744568511518474240
run
##iteration:          24
##e: 1100000001001110000001000101101011110111000110111111011000000000##e_exp:    5##normalize_amp: 0100000111010000000100001110110010100000110100000000000000000000##normalize_amp:  4742309016117444608
##e: 1100000001001110000001000101101011110111000110111111011000000000##e_exp:    5##normalize_amp: 0100000111010000000100001110110010100000110100000000000000000000##normalize_amp:  4742309016117444608
##iteration:          25
##e: 0100000001110100000101101111101011001110010010011000100111000000##e_exp:    8##normalize_amp: 0100000111011011001000011011100010110101110100000000000000000000##normalize_amp:  4745423709572956160
##e: 0100000001110100000101101111101011001110010010011000100111000000##e_exp:    8##normalize_amp: 0100000111011011001000011011100010110101110100000000000000000000##normalize_amp:  4745423709572956160
##iteration:          26
##e: 1100000001110100101000100101001001000000010001110011111110000000##e_exp:    8##normalize_amp: 0100000111001100000110100100000000001101101000000000000000000000##normalize_amp:  4741193370123108352
##e: 1100000001110100101000100101001001000000010001110011111110000000##e_exp:    8##normalize_amp: 0100000111001100000110100100000000001101101000000000000000000000##normalize_amp:  4741193370123108352
##iteration:          27
##e: 1100000001010110100100111101010000010001101011010111000001000000##e_exp:    6##normalize_amp: 0100000111010110011000110101111010001000110100000000000000000000##normalize_amp:  4744088515154804736
##e: 1100000001010110100100111101010000010001101011010111000001000000##e_exp:    6##normalize_amp: 0100000111010110011000110101111010001000110100000000000000000000##normalize_amp:  4744088515154804736
##iteration:          28
##e: 1100000001010010111000111111000011110001000110010001000100000000##e_exp:    6##normalize_amp: 0100000111001001111101111010011101110010101000000000000000000000##normalize_amp:  4740592381338845184
##e: 1100000001010010111000111111000011110001000110010001000100000000##e_exp:    6##normalize_amp: 0100000111001001111101111010011101110010101000000000000000000000##normalize_amp:  4740592381338845184
run
##iteration:          29
##e: 0100000001100000100001011111000100101111000011001101000111000000##e_exp:    7##normalize_amp: 0100000111001010010011011111010010111110001000000000000000000000##normalize_amp:  4740687271317995520
##e: 0100000001100000100001011111000100101111000011001101000111000000##e_exp:    7##normalize_amp: 0100000111001010010011011111010010111110001000000000000000000000##normalize_amp:  4740687271317995520
##iteration:          30
##e: 1100000001100010110100000010100100000001000001000011010010000000##e_exp:    7##normalize_amp: 0100000111010010101010100101001101110011000100000000000000000000##normalize_amp:  4743040632963989504
##e: 1100000001100010110100000010100100000001000001000011010010000000##e_exp:    7##normalize_amp: 0100000111010010101010100101001101110011000100000000000000000000##normalize_amp:  4743040632963989504
##iteration:          31
##e: 0100000001101000001011000110011011100000001101011101001011100000##e_exp:    7##normalize_amp: 0100000110111100000001101101101001100101010000000000000000000000##normalize_amp:  4736668443158249472
##e: 0100000001101000001011000110011011100000001101011101001011100000##e_exp:    7##normalize_amp: 0100000110111100000001101101101001100101010000000000000000000000##normalize_amp:  4736668443158249472
##iteration:          32
##e: 0100000000011011110111000010001000010101001100110000011000000000##e_exp:    2##normalize_amp: 0100000111000010001110111111000110010100101000000000000000000000##normalize_amp:  4738415666713853952
##e: 0100000000011011110111000010001000010101001100110000011000000000##e_exp:    2##normalize_amp: 0100000111000010001110111111000110010100101000000000000000000000##normalize_amp:  4738415666713853952
##iteration:          33
##e: 0100000001010001001111010000111101001101011010100101010110000000##e_exp:    6##normalize_amp: 0100000110111110100100110100101000101011010000000000000000000000##normalize_amp:  4737385804802818048
##e: 0100000001010001001111010000111101001101011010100101010110000000##e_exp:    6##normalize_amp: 0100000110111110100100110100101000101011010000000000000000000000##normalize_amp:  4737385804802818048
run
##iteration:          34
##e: 1100000001010100110111001110010010000101110011011101001110000000##e_exp:    6##normalize_amp: 0100000110100111110101001001111110100100100000000000000000000000##normalize_amp:  4730983715700736000
##e: 1100000001010100110111001110010010000101110011011101001110000000##e_exp:    6##normalize_amp: 0100000110100111110101001001111110100100100000000000000000000000##normalize_amp:  4730983715700736000
##iteration:          35
##e: 1100000000110011001111010010000011000011100111110111001000000000##e_exp:    4##normalize_amp: 0100000111000100100110001000010000010011101000000000000000000000##normalize_amp:  4739080400932962304
##e: 1100000000110011001111010010000011000011100111110111001000000000##e_exp:    4##normalize_amp: 0100000111000100100110001000010000010011101000000000000000000000##normalize_amp:  4739080400932962304
##iteration:          36
##e: 1100000001001111001101101001001111000100100001011000010000000000##e_exp:    5##normalize_amp: 0100000111000111001100110010101001100011101000000000000000000000##normalize_amp:  4739813389983809536
##e: 1100000001001111001101101001001111000100100001011000010000000000##e_exp:    5##normalize_amp: 0100000111000111001100110010101001100011101000000000000000000000##normalize_amp:  4739813389983809536
##iteration:          37
##e: 1100000000010010111100001000001011001001001001001100000000000000##e_exp:    2##normalize_amp: 0100000111000000001110110000110010011111101000000000000000000000##normalize_amp:  4737851733397471232
##e: 1100000000010010111100001000001011001001001001001100000000000000##e_exp:    2##normalize_amp: 0100000111000000001110110000110010011111101000000000000000000000##normalize_amp:  4737851733397471232
##iteration:          38
##e: 1100000001011101011101111100111010011010111111101101110010000000##e_exp:    6##normalize_amp: 0100000111010110001010110011001110111111000100000000000000000000##normalize_amp:  4744026758730219520
##e: 1100000001011101011101111100111010011010111111101101110010000000##e_exp:    6##normalize_amp: 0100000111010110001010110011001110111111000100000000000000000000##normalize_amp:  4744026758730219520
run
##iteration:          39
##e: 0100000001001000000011101101101101011000111000101110011010000000##e_exp:    5##normalize_amp: 0100000111001110001101111011000110000001001000000000000000000000##normalize_amp:  4741788693182808064
##e: 0100000001001000000011101101101101011000111000101110011010000000##e_exp:    5##normalize_amp: 0100000111001110001101111011000110000001001000000000000000000000##normalize_amp:  4741788693182808064
##iteration:          40
##e: 0100000001010000101110101101110000011001111010110011000000000000##e_exp:    6##normalize_amp: 0100000110110011010100010111101100010010010000000000000000000000##normalize_amp:  4734217222325534720
##e: 0100000001010000101110101101110000011001111010110011000000000000##e_exp:    6##normalize_amp: 0100000110110011010100010111101100010010010000000000000000000000##normalize_amp:  4734217222325534720
##iteration:          41
##e: 1100000000111101010001000111001010001000100000111111110000000000##e_exp:    4##normalize_amp: 0100000111010110110101110111010101100001010100000000000000000000##normalize_amp:  4744216156625174528
##e: 1100000000111101010001000111001010001000100000111111110000000000##e_exp:    4##normalize_amp: 0100000111010110110101110111010101100001010100000000000000000000##normalize_amp:  4744216156625174528
##iteration:          42
##e: 1100000001011111010000101010011001110101110100001111001000000000##e_exp:    6##normalize_amp: 0100000111011010010111101111100110010011010100000000000000000000##normalize_amp:  4745209583399600128
##e: 1100000001011111010000101010011001110101110100001111001000000000##e_exp:    6##normalize_amp: 0100000111011010010111101111100110010011010100000000000000000000##normalize_amp:  4745209583399600128
##iteration:          43
##e: 1100000000110010010011001100001001011101101101101101100000000000##e_exp:    4##normalize_amp: 0100000111010111110011001101111100111011010100000000000000000000##normalize_amp:  4744485991602978816
##e: 1100000000110010010011001100001001011101101101101101100000000000##e_exp:    4##normalize_amp: 0100000111010111110011001101111100111011010100000000000000000000##normalize_amp:  4744485991602978816
run
##iteration:          44
##e: 1100000001011101010001000001011110011000011111101100100000000000##e_exp:    6##normalize_amp: 0100000111010111001101001001100001101011110100000000000000000000##normalize_amp:  4744318561706573824
##e: 1100000001011101010001000001011110011000011111101100100000000000##e_exp:    6##normalize_amp: 0100000111010111001101001001100001101011110100000000000000000000##normalize_amp:  4744318561706573824
##iteration:          45
##e: 0100000001010101010110000111000111101111011111000011101001000000##e_exp:    6##normalize_amp: 0100000111011001010001001001101100011010110100000000000000000000##normalize_amp:  4744899115371986944
##e: 0100000001010101010110000111000111101111011111000011101001000000##e_exp:    6##normalize_amp: 0100000111011001010001001001101100011010110100000000000000000000##normalize_amp:  4744899115371986944
##iteration:          46
##e: 0100000001001111111000101100110101000001110000001101011000000000##e_exp:    5##normalize_amp: 0100000111010011000100001101101001001001110100000000000000000000##normalize_amp:  4743153362278547456
##e: 0100000001001111111000101100110101000001110000001101011000000000##e_exp:    5##normalize_amp: 0100000111010011000100001101101001001001110100000000000000000000##normalize_amp:  4743153362278547456
##iteration:          47
##e: 1100000001010011011000110111111111110010101010110001011001000000##e_exp:    6##normalize_amp: 0100000111010001110011011111000010101010000100000000000000000000##normalize_amp:  4742798316126863360
##e: 1100000001010011011000110111111111110010101010110001011001000000##e_exp:    6##normalize_amp: 0100000111010001110011011111000010101010000100000000000000000000##normalize_amp:  4742798316126863360
##iteration:          48
##e: 1100000001001010011010101101100101101001001011100110010000000000##e_exp:    5##normalize_amp: 0100000111010001111001010000000111001000110100000000000000000000##normalize_amp:  4742823678424645632
##e: 1100000001001010011010101101100101101001001011100110010000000000##e_exp:    5##normalize_amp: 0100000111010001111001010000000111001000110100000000000000000000##normalize_amp:  4742823678424645632
run
##iteration:          49
##e: 1100000000111111110100110010100010000001101111010101111100000000##e_exp:    4##normalize_amp: 0100000111010100011101100001011000011111000100000000000000000000##normalize_amp:  4743546144910475264
##e: 1100000000111111110100110010100010000001101111010101111100000000##e_exp:    4##normalize_amp: 0100000111010100011101100001011000011111000100000000000000000000##normalize_amp:  4743546144910475264
##iteration:          50
##e: 0100000001001111000011010001011111000001000011010110100000000000##e_exp:    5##normalize_amp: 0100000110101101101010001001110111010000100000000000000000000000##normalize_amp:  4732624179197640704
##e: 0100000001001111000011010001011111000001000011010110100000000000##e_exp:    5##normalize_amp: 0100000110101101101010001001110111010000100000000000000000000000##normalize_amp:  4732624179197640704
##iteration:          51
##e: 1100000001010011111000101010000110111011011110100010000100000000##e_exp:    6##normalize_amp: 0100000111011001000111000001101010010011000100000000000000000000##normalize_amp:  4744854582873554944
##e: 1100000001010011111000101010000110111011011110100010000100000000##e_exp:    6##normalize_amp: 0100000111011001000111000001101010010011000100000000000000000000##normalize_amp:  4744854582873554944
##iteration:          52
##e: 1100000000000101101111111101100001111010110101010100000000000000##e_exp:    1##normalize_amp: 0100000111001100110011110001111110011001101000000000000000000000##normalize_amp:  4741392242342625280
##e: 1100000000000101101111111101100001111010110101010100000000000000##e_exp:    1##normalize_amp: 0100000111001100110011110001111110011001101000000000000000000000##normalize_amp:  4741392242342625280
##iteration:          53
##e: 1100000001100110111010111001011111111110110111000110010001100110##e_exp:    7##normalize_amp: 0100000111001001110000100011001010101110001000000000000000000000##normalize_amp:  4740533605709643776
##e: 1100000001100110111010111001011111111110110111000110010001100110##e_exp:    7##normalize_amp: 0100000111001001110000100011001010101110001000000000000000000000##normalize_amp:  4740533605709643776
run
##iteration:          54
##e: 0100000001000111000111001011101010110110100110100100110010000000##e_exp:    5##normalize_amp: 0100000111010110111110001000001000110001010100000000000000000000##normalize_amp:  4744252495538159616
##e: 0100000001000111000111001011101010110110100110100100110010000000##e_exp:    5##normalize_amp: 0100000111010110111110001000001000110001010100000000000000000000##normalize_amp:  4744252495538159616
##iteration:          55
##e: 1100000001100011100111000110001101010000011010001100000111000000##e_exp:    7##normalize_amp: 0100000111000110011101010111000111000010001000000000000000000000##normalize_amp:  4739604789302657024
##e: 1100000001100011100111000110001101010000011010001100000111000000##e_exp:    7##normalize_amp: 0100000111000110011101010111000111000010001000000000000000000000##normalize_amp:  4739604789302657024
##iteration:          56
##e: 0100000001001001101001101110101100011101101000110010001100000000##e_exp:    5##normalize_amp: 0100000111011110000100001011101101110110110100000000000000000000##normalize_amp:  4746249454633353216
##e: 0100000001001001101001101110101100011101101000110010001100000000##e_exp:    5##normalize_amp: 0100000111011110000100001011101101110110110100000000000000000000##normalize_amp:  4746249454633353216
##iteration:          57
##e: 1100000001100100001111100111101110100101101100110001111100000000##e_exp:    7##normalize_amp: 0100000111010101110000110011011011010100010100000000000000000000##normalize_amp:  4743912422762348544
##e: 1100000001100100001111100111101110100101101100110001111100000000##e_exp:    7##normalize_amp: 0100000111010101110000110011011011010100010100000000000000000000##normalize_amp:  4743912422762348544
##iteration:          58
##e: 0100000000110110111011101101011110001000110100110001000000000000##e_exp:    4##normalize_amp: 0100000111011100101000001111000001001000010100000000000000000000##normalize_amp:  4745845061207457792
##e: 0100000000110110111011101101011110001000110100110001000000000000##e_exp:    4##normalize_amp: 0100000111011100101000001111000001001000010100000000000000000000##normalize_amp:  4745845061207457792
run
##iteration:          59
##e: 1100000001011001001001010001000100111101101001010010110000000000##e_exp:    6##normalize_amp: 0100000111010111110011011010001110011000100100000000000000000000##normalize_amp:  4744486834981044224
##e: 1100000001011001001001010001000100111101101001010010110000000000##e_exp:    6##normalize_amp: 0100000111010111110011011010001110011000100100000000000000000000##normalize_amp:  4744486834981044224
##iteration:          60
##e: 1100000001010001110001001011010101011001100000000110111100000000##e_exp:    6##normalize_amp: 0100000111010011100100001110100100010111000100000000000000000000##normalize_amp:  4743294163339968512
##e: 1100000001010001110001001011010101011001100000000110111100000000##e_exp:    6##normalize_amp: 0100000111010011100100001110100100010111000100000000000000000000##normalize_amp:  4743294163339968512
##iteration:          61
##e: 0100000001000101110010110000000011010011011000110101100110000000##e_exp:    5##normalize_amp: 0100000111000011101010011100011100000010101000000000000000000000##normalize_amp:  4738817905131520000
##e: 0100000001000101110010110000000011010011011000110101100110000000##e_exp:    5##normalize_amp: 0100000111000011101010011100011100000010101000000000000000000000##normalize_amp:  4738817905131520000
##iteration:          62
##e: 0100000001000000011111001110000111100001001000101111000111000000##e_exp:    5##normalize_amp: 0100000110110111111000111100110001000100010000000000000000000000##normalize_amp:  4735503999661244416
##e: 0100000001000000011111001110000111100001001000101111000111000000##e_exp:    5##normalize_amp: 0100000110110111111000111100110001000100010000000000000000000000##normalize_amp:  4735503999661244416
##iteration:          63
##e: 1100000000100110101101001110000001000001100100001110100000000000##e_exp:    3##normalize_amp: 0100000111001101001010000010110000100010001000000000000000000000##normalize_amp:  4741490152707194880
##e: 1100000000100110101101001110000001000001100100001110100000000000##e_exp:    3##normalize_amp: 0100000111001101001010000010110000100010001000000000000000000000##normalize_amp:  4741490152707194880
run
##iteration:          64
##e: 1100000001010000111110101001000011011110111100111101100100000000##e_exp:    6##normalize_amp: 0100000111011011101101101001110010011111110100000000000000000000##normalize_amp:  4745587416177311744
##e: 1100000001010000111110101001000011011110111100111101100100000000##e_exp:    6##normalize_amp: 0100000111011011101101101001110010011111110100000000000000000000##normalize_amp:  4745587416177311744
##iteration:          65
##e: 1100000001000100011000101010101100100101001010100000100000000000##e_exp:    5##normalize_amp: 0100000111001110110110001110000000101011101000000000000000000000##normalize_amp:  4741965914983890944
##e: 1100000001000100011000101010101100100101001010100000100000000000##e_exp:    5##normalize_amp: 0100000111001110110110001110000000101011101000000000000000000000##normalize_amp:  4741965914983890944
##iteration:          66
##e: 1100000001000111100001111111110110111101010110000101111000000000##e_exp:    5##normalize_amp: 0100000111010000111111001000111001000101110100000000000000000000##normalize_amp:  4742568095607947264
##e: 1100000001000111100001111111110110111101010110000101111000000000##e_exp:    5##normalize_amp: 0100000111010000111111001000111001000101110100000000000000000000##normalize_amp:  4742568095607947264
##iteration:          67
##e: 1100000000111001000100110101000101111011001010111011100000000000##e_exp:    4##normalize_amp: 0100000111010110010001000101111011111001100100000000000000000000##normalize_amp:  4744054432185974784
##e: 1100000000111001000100110101000101111011001010111011100000000000##e_exp:    4##normalize_amp: 0100000111010110010001000101111011111001100100000000000000000000##normalize_amp:  4744054432185974784
##iteration:          68
##e: 1100000000101010001000000111110101000111101001000010011010000000##e_exp:    3##normalize_amp: 0100000110100110001111100101001100011100100000000000000000000000##normalize_amp:  4730536985280643072
##e: 1100000000101010001000000111110101000111101001000010011010000000##e_exp:    3##normalize_amp: 0100000110100110001111100101001100011100100000000000000000000000##normalize_amp:  4730536985280643072
run
##iteration:          69
##e: 0011111111110010110101100110011101010000010011000110000000000000##e_exp:    0##normalize_amp: 0100000111010001011011000111100100111110110100000000000000000000##normalize_amp:  4742691150598504448
##e: 0011111111110010110101100110011101010000010011000110000000000000##e_exp:    0##normalize_amp: 0100000111010001011011000111100100111110110100000000000000000000##normalize_amp:  4742691150598504448
##iteration:          70
##e: 1100000000111100101111000110011101001010000001110010100100000000##e_exp:    4##normalize_amp: 0100000111010100101000111000111011110111110100000000000000000000##normalize_amp:  4743596141966262272
##e: 1100000000111100101111000110011101001010000001110010100100000000##e_exp:    4##normalize_amp: 0100000111010100101000111000111011110111110100000000000000000000##normalize_amp:  4743596141966262272
##iteration:          71
##e: 0100000000000101111110001101000100101110010001011010000000000000##e_exp:    1##normalize_amp: 0100000111001000010000101000001011000111001000000000000000000000##normalize_amp:  4740111737261391872
##e: 0100000000000101111110001101000100101110010001011010000000000000##e_exp:    1##normalize_amp: 0100000111001000010000101000001011000111001000000000000000000000##normalize_amp:  4740111737261391872
##iteration:          72
##e: 1011111111001110000100111010100011011001001100111010000000000000##e_exp: 2045##normalize_amp: 0100000111011111001001111111101001100101010100000000000000000000##normalize_amp:  4746556488666841088
##e: 1011111111001110000100111010100011011001001100111010000000000000##e_exp: 2045##normalize_amp: 0100000111011111001001111111101001100101010100000000000000000000##normalize_amp:  4746556488666841088
##iteration:          73
##e: 0100000001000001000100100011010011000111011111011110110000000000##e_exp:    5##normalize_amp: 0100000111010010100000110110010010011111110100000000000000000000##normalize_amp:  4742997825775730688
##e: 0100000001000001000100100011010011000111011111011110110000000000##e_exp:    5##normalize_amp: 0100000111010010100000110110010010011111110100000000000000000000##normalize_amp:  4742997825775730688
run
##iteration:          74
##e: 0100000000101010110011111001001111101101001000011001000000000000##e_exp:    3##normalize_amp: 0100000111010010011010100110001011001100110100000000000000000000##normalize_amp:  4742970330150076416
##e: 0100000000101010110011111001001111101101001000011001000000000000##e_exp:    3##normalize_amp: 0100000111010010011010100110001011001100110100000000000000000000##normalize_amp:  4742970330150076416
##iteration:          75
##e: 0100000000011100010000011111000101111100100110100100001000000000##e_exp:    2##normalize_amp: 0100000111011001101011100110011111010000110100000000000000000000##normalize_amp:  4745015443319685120
##e: 0100000000011100010000011111000101111100100110100100001000000000##e_exp:    2##normalize_amp: 0100000111011001101011100110011111010000110100000000000000000000##normalize_amp:  4745015443319685120
##iteration:          76
##e: 1011111111110100001011010011001100101100100110011000000000000000##e_exp:    0##normalize_amp: 0100000110101110010101111110010000000110100000000000000000000000##normalize_amp:  4732816895286181888
##e: 1011111111110100001011010011001100101100100110011000000000000000##e_exp:    0##normalize_amp: 0100000110101110010101111110010000000110100000000000000000000000##normalize_amp:  4732816895286181888
##iteration:          77
##e: 0100000000111011101111101111000010010111100011011001000100000000##e_exp:    4##normalize_amp: 0100000111011101011100100010001110111101100100000000000000000000##normalize_amp:  4746075080148123648
##e: 0100000000111011101111101111000010010111100011011001000100000000##e_exp:    4##normalize_amp: 0100000111011101011100100010001110111101100100000000000000000000##normalize_amp:  4746075080148123648
##iteration:          78
##e: 1100000000100011100100110011010111111001100110110110100000000000##e_exp:    3##normalize_amp: 0100000111010110000100100110101110110011100100000000000000000000##normalize_amp:  4743999511264755712
##e: 1100000000100011100100110011010111111001100110110110100000000000##e_exp:    3##normalize_amp: 0100000111010110000100100110101110110011100100000000000000000000##normalize_amp:  4743999511264755712
run
##iteration:          79
##e: 0100000000111011111001111100001111010001000000000111011000000000##e_exp:    4##normalize_amp: 0100000110111011000011000001001010011100010000000000000000000000##normalize_amp:  4736392707180593152
##e: 0100000000111011111001111100001111010001000000000111011000000000##e_exp:    4##normalize_amp: 0100000110111011000011000001001010011100010000000000000000000000##normalize_amp:  4736392707180593152
##iteration:          80
##e: 0100000000101111100110000100100110101111101000011110001100000000##e_exp:    3##normalize_amp: 0100000111010000001010011001001111110110000100000000000000000000##normalize_amp:  4742336123086307328
##e: 0100000000101111100110000100100110101111101000011110001100000000##e_exp:    3##normalize_amp: 0100000111010000001010011001001111110110000100000000000000000000##normalize_amp:  4742336123086307328
##iteration:          81
##e: 0100000000110011100101001010100000011101101110010110110000000000##e_exp:    4##normalize_amp: 0100000110111000000000110101111101000100010000000000000000000000##normalize_amp:  4735538715881897984
##e: 0100000000110011100101001010100000011101101110010110110000000000##e_exp:    4##normalize_amp: 0100000110111000000000110101111101000100010000000000000000000000##normalize_amp:  4735538715881897984
##iteration:          82
##e: 0100000000110010001011010100000000000011110011111101000001000000##e_exp:    4##normalize_amp: 0100000110010010001101111100011010101101000000000000000000000000##normalize_amp:  4724900285510582272
##e: 0100000000110010001011010100000000000011110011111101000001000000##e_exp:    4##normalize_amp: 0100000110010010001101111100011010101101000000000000000000000000##normalize_amp:  4724900285510582272
##iteration:          83
##e: 1100000000100000101001110011011111001010011110110001100000000000##e_exp:    3##normalize_amp: 0100000110100111001101110110001011100000100000000000000000000000##normalize_amp:  4730810831388803072
