transcript
# Reading D:/WORKING_FOLDER/echo_cancelation/modelsim_ase/tcl/vsim/pref.tcl
# OpenFile D:/WORKING_FOLDER/echo_cancelation/A_code/echo_cancelation.mpf
# Loading project echo_cancelation
vsim -gui work.tb_all
# vsim -gui work.tb_all 
# Start time: 18:14:34 on Aug 12,2018
# Loading work.tb_all
# Loading work.signal_generator
# Loading work.sig16b_to_double
# Loading work.lag_generator
# Loading work.fpu
# Loading work.fpu_add
# Loading work.fpu_sub
# Loading work.fpu_mul
# Loading work.fpu_div
# Loading work.fpu_round
# Loading work.fpu_exceptions
# Loading work.echo_approx
add wave -position insertpoint sim:/tb_all/*
# ** Warning: (vsim-WLF-5000) WLF file currently in use: vsim.wlf
#           File in use by: ankai  Hostname: LAPTOP-VQG426F9  ProcessID: 7896
#           Attempting to use alternate WLF file "./wlft2h9bxq".
# ** Warning: (vsim-WLF-5001) Could not open WLF file: vsim.wlf
#           Using alternate file: ./wlft2h9bxq
run
run
#  ##count_operation: 4 ##lag_0:         14 ##lag_1:         14 ##lag_2:         14 ##lag_3:         14 ##out_U0:         29 ##out_U1:         30 ##out_U2:         14 ##out_U3:         14
#  ##count_operation: 5 ##lag_0:         14 ##lag_1:         14 ##lag_2:         14 ##lag_3:         14 ##out_U0:         29 ##out_U1:         29 ##out_U2:         14 ##out_U3:         14
run
#  ##count_operation: 4 ##lag_0:         14 ##lag_1:         14 ##lag_2:         14 ##lag_3:         14 ##out_U0:         29 ##out_U1:         30 ##out_U2:         14 ##out_U3:         14
#  ##count_operation: 5 ##lag_0:         14 ##lag_1:         14 ##lag_2:         14 ##lag_3:         14 ##out_U0:         29 ##out_U1:         29 ##out_U2:         14 ##out_U3:         14
#  ##count_operation: 4 ##lag_0:         13 ##lag_1:         14 ##lag_2:         14 ##lag_3:         14 ##out_U0:         28 ##out_U1:         29 ##out_U2:         14 ##out_U3:         14
#  ##count_operation: 5 ##lag_0:         13 ##lag_1:         14 ##lag_2:         14 ##lag_3:         14 ##out_U0:         28 ##out_U1:         29 ##out_U2:         14 ##out_U3:         14
run
#  ##count_operation: 4 ##lag_0:         14 ##lag_1:         13 ##lag_2:         14 ##lag_3:         14 ##out_U0:         28 ##out_U1:         29 ##out_U2:         14 ##out_U3:         14
#  ##count_operation: 5 ##lag_0:         14 ##lag_1:         13 ##lag_2:         14 ##lag_3:         14 ##out_U0:         28 ##out_U1:         29 ##out_U2:         14 ##out_U3:         14
#  ##count_operation: 4 ##lag_0:         11 ##lag_1:         14 ##lag_2:         13 ##lag_3:         14 ##out_U0:         28 ##out_U1:         29 ##out_U2:         13 ##out_U3:         14
#  ##count_operation: 5 ##lag_0:         11 ##lag_1:         14 ##lag_2:         13 ##lag_3:         14 ##out_U0:         28 ##out_U1:         28 ##out_U2:         13 ##out_U3:         14
restart
add wave -position insertpoint sim:/tb_all/MUT2/*
run
# GetModuleFileName: The specified module could not be found.
# 
# 
run
#  ##count_operation: 4 ##lag_0:         14 ##lag_1:         14 ##lag_2:         14 ##lag_3:         14 ##out_U0:         29 ##out_U1:         30 ##out_U2:         14 ##out_U3:         14
#  ##count_operation: 5 ##lag_0:         14 ##lag_1:         14 ##lag_2:         14 ##lag_3:         14 ##out_U0:         29 ##out_U1:         29 ##out_U2:         14 ##out_U3:         14
run
#  ##count_operation: 4 ##lag_0:         14 ##lag_1:         14 ##lag_2:         14 ##lag_3:         14 ##out_U0:         29 ##out_U1:         30 ##out_U2:         14 ##out_U3:         14
#  ##count_operation: 5 ##lag_0:         14 ##lag_1:         14 ##lag_2:         14 ##lag_3:         14 ##out_U0:         29 ##out_U1:         29 ##out_U2:         14 ##out_U3:         14
#  ##count_operation: 4 ##lag_0:         13 ##lag_1:         14 ##lag_2:         14 ##lag_3:         14 ##out_U0:         28 ##out_U1:         29 ##out_U2:         14 ##out_U3:         14
#  ##count_operation: 5 ##lag_0:         13 ##lag_1:         14 ##lag_2:         14 ##lag_3:         14 ##out_U0:         28 ##out_U1:         29 ##out_U2:         14 ##out_U3:         14
# WARNING: No extended dataflow license exists
# Error: invalid command name "::.main_pane.dataflow.interior.cs.body.pw.df.c"
# Error: invalid command name "::.main_pane.dataflow.interior.cs.body.pw.df.c"
quit -sim
# End time: 18:50:41 on Aug 12,2018, Elapsed time: 0:36:07
# Errors: 2, Warnings: 3
# Compile of lag_generator.v was successful.
# Compile of echo_approx.v was successful.
# 2 compiles, 0 failed with no errors.
vsim -gui work.tb_all
# vsim -gui work.tb_all 
# Start time: 18:58:11 on Aug 12,2018
# Loading work.tb_all
# Loading work.signal_generator
# Loading work.sig16b_to_double
# Loading work.lag_generator
# Loading work.fpu
# Loading work.fpu_add
# Loading work.fpu_sub
# Loading work.fpu_mul
# Loading work.fpu_div
# Loading work.fpu_round
# Loading work.fpu_exceptions
# Loading work.echo_approx
add wave -position insertpoint sim:/tb_all/*
# ** Warning: (vsim-WLF-5000) WLF file currently in use: vsim.wlf
#           File in use by: ankai  Hostname: LAPTOP-VQG426F9  ProcessID: 7896
#           Attempting to use alternate WLF file "./wlftfgd737".
# ** Warning: (vsim-WLF-5001) Could not open WLF file: vsim.wlf
#           Using alternate file: ./wlftfgd737
run
#  ##count_operation: 4 ##lag_0:         14 ##lag_1:         14 ##lag_2: 4294966273 ##lag_3:          x ##out_U0:          x ##out_U1:          x ##out_U2: 4294966273 ##out_U3:          x
#  ##count_operation: 5 ##lag_0:         14 ##lag_1:         14 ##lag_2: 4294966273 ##lag_3:          x ##out_U0:          x ##out_U1:          x ##out_U2: 4294966273 ##out_U3:          x
run
#  ##count_operation: 4 ##lag_0:         13 ##lag_1:         14 ##lag_2:         14 ##lag_3: 4294966273 ##out_U0:         14 ##out_U1:         29 ##out_U2:         14 ##out_U3: 4294966273
#  ##count_operation: 5 ##lag_0:         13 ##lag_1:         14 ##lag_2:         14 ##lag_3: 4294966273 ##out_U0:         14 ##out_U1:         29 ##out_U2:         14 ##out_U3: 4294966273
#  ##count_operation: 4 ##lag_0:         14 ##lag_1:         13 ##lag_2:         14 ##lag_3:         14 ##out_U0:         28 ##out_U1:         30 ##out_U2:         14 ##out_U3:         14
#  ##count_operation: 5 ##lag_0:         14 ##lag_1:         13 ##lag_2:         14 ##lag_3:         14 ##out_U0:         28 ##out_U1:         30 ##out_U2:         14 ##out_U3:         14
#  ##count_operation: 4 ##lag_0:         13 ##lag_1:         14 ##lag_2:         13 ##lag_3:         14 ##out_U0:         29 ##out_U1:         30 ##out_U2:         13 ##out_U3:         14
#  ##count_operation: 5 ##lag_0:         13 ##lag_1:         14 ##lag_2:         13 ##lag_3:         14 ##out_U0:         29 ##out_U1:         30 ##out_U2:         13 ##out_U3:         14
#  ##count_operation: 4 ##lag_0:         14 ##lag_1:         13 ##lag_2:         14 ##lag_3:         13 ##out_U0:         27 ##out_U1:         29 ##out_U2:         14 ##out_U3:         13
#  ##count_operation: 5 ##lag_0:         14 ##lag_1:         13 ##lag_2:         14 ##lag_3:         13 ##out_U0:         27 ##out_U1:         28 ##out_U2:         14 ##out_U3:         13
#  ##count_operation: 4 ##lag_0:         14 ##lag_1:         14 ##lag_2:         13 ##lag_3:         14 ##out_U0:         29 ##out_U1:         30 ##out_U2:         13 ##out_U3:         14
#  ##count_operation: 5 ##lag_0:         14 ##lag_1:         14 ##lag_2:         13 ##lag_3:         14 ##out_U0:         29 ##out_U1:         29 ##out_U2:         13 ##out_U3:         14
run
#  ##count_operation: 4 ##lag_0:         14 ##lag_1:         14 ##lag_2:         14 ##lag_3:         13 ##out_U0:         26 ##out_U1:         30 ##out_U2:         14 ##out_U3:         13
#  ##count_operation: 5 ##lag_0:         14 ##lag_1:         14 ##lag_2:         14 ##lag_3:         13 ##out_U0:         26 ##out_U1:         30 ##out_U2:         14 ##out_U3:         13
#  ##count_operation: 4 ##lag_0:         13 ##lag_1:         14 ##lag_2:         14 ##lag_3:         14 ##out_U0:         28 ##out_U1:         30 ##out_U2:         14 ##out_U3:         14
#  ##count_operation: 5 ##lag_0:         13 ##lag_1:         14 ##lag_2:         14 ##lag_3:         14 ##out_U0:         28 ##out_U1:         30 ##out_U2:         14 ##out_U3:         14
#  ##count_operation: 4 ##lag_0:         14 ##lag_1:         13 ##lag_2:         14 ##lag_3:         14 ##out_U0:         29 ##out_U1:         30 ##out_U2:         14 ##out_U3:         14
#  ##count_operation: 5 ##lag_0:         14 ##lag_1:         13 ##lag_2:         14 ##lag_3:         14 ##out_U0:         29 ##out_U1:         29 ##out_U2:         14 ##out_U3:         14
#  ##count_operation: 4 ##lag_0:         14 ##lag_1:         14 ##lag_2:         13 ##lag_3:         14 ##out_U0:         29 ##out_U1:         30 ##out_U2:         13 ##out_U3:         14
#  ##count_operation: 5 ##lag_0:         14 ##lag_1:         14 ##lag_2:         13 ##lag_3:         14 ##out_U0:         29 ##out_U1:         29 ##out_U2:         13 ##out_U3:         14
#  ##count_operation: 4 ##lag_0:         13 ##lag_1:         14 ##lag_2:         14 ##lag_3:         13 ##out_U0:         27 ##out_U1:         29 ##out_U2:         14 ##out_U3:         13
#  ##count_operation: 5 ##lag_0:         13 ##lag_1:         14 ##lag_2:         14 ##lag_3:         13 ##out_U0:         27 ##out_U1:         29 ##out_U2:         14 ##out_U3:         13
run
#  ##count_operation: 4 ##lag_0:         14 ##lag_1:         13 ##lag_2:         14 ##lag_3:         14 ##out_U0:         28 ##out_U1:         30 ##out_U2:         14 ##out_U3:         14
#  ##count_operation: 5 ##lag_0:         14 ##lag_1:         13 ##lag_2:         14 ##lag_3:         14 ##out_U0:         28 ##out_U1:         29 ##out_U2:         14 ##out_U3:         14
#  ##count_operation: 4 ##lag_0:         14 ##lag_1:         14 ##lag_2:         13 ##lag_3:         14 ##out_U0:         28 ##out_U1:         30 ##out_U2:         13 ##out_U3:         14
#  ##count_operation: 5 ##lag_0:         14 ##lag_1:         14 ##lag_2:         13 ##lag_3:         14 ##out_U0:         28 ##out_U1:         30 ##out_U2:         13 ##out_U3:         14
#  ##count_operation: 4 ##lag_0:         14 ##lag_1:         14 ##lag_2:         14 ##lag_3:         13 ##out_U0:         27 ##out_U1:         30 ##out_U2:         14 ##out_U3:         13
#  ##count_operation: 5 ##lag_0:         14 ##lag_1:         14 ##lag_2:         14 ##lag_3:         13 ##out_U0:         27 ##out_U1:         30 ##out_U2:         14 ##out_U3:         13
#  ##count_operation: 4 ##lag_0:         11 ##lag_1:         14 ##lag_2:         14 ##lag_3:         14 ##out_U0:         29 ##out_U1:         30 ##out_U2:         14 ##out_U3:         14
#  ##count_operation: 5 ##lag_0:         11 ##lag_1:         14 ##lag_2:         14 ##lag_3:         14 ##out_U0:         29 ##out_U1:         29 ##out_U2:         14 ##out_U3:         14
#  ##count_operation: 4 ##lag_0:         12 ##lag_1:         11 ##lag_2:         14 ##lag_3:         14 ##out_U0:         28 ##out_U1:         28 ##out_U2:         14 ##out_U3:         14
#  ##count_operation: 5 ##lag_0:         12 ##lag_1:         11 ##lag_2:         14 ##lag_3:         14 ##out_U0:         28 ##out_U1:         24 ##out_U2:         14 ##out_U3:         14
restart
add wave -position insertpoint sim:/tb_all/MUT3/*
run
# GetModuleFileName: The specified module could not be found.
# 
# 
#  ##count_operation: 4 ##lag_0:         14 ##lag_1:         14 ##lag_2: 4294966273 ##lag_3:          x ##out_U0:          x ##out_U1:          x ##out_U2: 4294966273 ##out_U3:          x
#  ##count_operation: 5 ##lag_0:         14 ##lag_1:         14 ##lag_2: 4294966273 ##lag_3:          x ##out_U0:          x ##out_U1:          x ##out_U2: 4294966273 ##out_U3:          x
run
#  ##count_operation: 4 ##lag_0:         13 ##lag_1:         14 ##lag_2:         14 ##lag_3: 4294966273 ##out_U0:         14 ##out_U1:         29 ##out_U2:         14 ##out_U3: 4294966273
#  ##count_operation: 5 ##lag_0:         13 ##lag_1:         14 ##lag_2:         14 ##lag_3: 4294966273 ##out_U0:         14 ##out_U1:         29 ##out_U2:         14 ##out_U3: 4294966273
#  ##count_operation: 4 ##lag_0:         14 ##lag_1:         13 ##lag_2:         14 ##lag_3:         14 ##out_U0:         28 ##out_U1:         30 ##out_U2:         14 ##out_U3:         14
#  ##count_operation: 5 ##lag_0:         14 ##lag_1:         13 ##lag_2:         14 ##lag_3:         14 ##out_U0:         28 ##out_U1:         30 ##out_U2:         14 ##out_U3:         14
#  ##count_operation: 4 ##lag_0:         13 ##lag_1:         14 ##lag_2:         13 ##lag_3:         14 ##out_U0:         29 ##out_U1:         30 ##out_U2:         13 ##out_U3:         14
#  ##count_operation: 5 ##lag_0:         13 ##lag_1:         14 ##lag_2:         13 ##lag_3:         14 ##out_U0:         29 ##out_U1:         30 ##out_U2:         13 ##out_U3:         14
#  ##count_operation: 4 ##lag_0:         14 ##lag_1:         13 ##lag_2:         14 ##lag_3:         13 ##out_U0:         27 ##out_U1:         29 ##out_U2:         14 ##out_U3:         13
#  ##count_operation: 5 ##lag_0:         14 ##lag_1:         13 ##lag_2:         14 ##lag_3:         13 ##out_U0:         27 ##out_U1:         28 ##out_U2:         14 ##out_U3:         13
#  ##count_operation: 4 ##lag_0:         14 ##lag_1:         14 ##lag_2:         13 ##lag_3:         14 ##out_U0:         29 ##out_U1:         30 ##out_U2:         13 ##out_U3:         14
#  ##count_operation: 5 ##lag_0:         14 ##lag_1:         14 ##lag_2:         13 ##lag_3:         14 ##out_U0:         29 ##out_U1:         29 ##out_U2:         13 ##out_U3:         14
run
#  ##count_operation: 4 ##lag_0:         14 ##lag_1:         14 ##lag_2:         14 ##lag_3:         13 ##out_U0:         26 ##out_U1:         30 ##out_U2:         14 ##out_U3:         13
#  ##count_operation: 5 ##lag_0:         14 ##lag_1:         14 ##lag_2:         14 ##lag_3:         13 ##out_U0:         26 ##out_U1:         30 ##out_U2:         14 ##out_U3:         13
#  ##count_operation: 4 ##lag_0:         13 ##lag_1:         14 ##lag_2:         14 ##lag_3:         14 ##out_U0:         28 ##out_U1:         30 ##out_U2:         14 ##out_U3:         14
#  ##count_operation: 5 ##lag_0:         13 ##lag_1:         14 ##lag_2:         14 ##lag_3:         14 ##out_U0:         28 ##out_U1:         30 ##out_U2:         14 ##out_U3:         14
#  ##count_operation: 4 ##lag_0:         14 ##lag_1:         13 ##lag_2:         14 ##lag_3:         14 ##out_U0:         29 ##out_U1:         30 ##out_U2:         14 ##out_U3:         14
#  ##count_operation: 5 ##lag_0:         14 ##lag_1:         13 ##lag_2:         14 ##lag_3:         14 ##out_U0:         29 ##out_U1:         29 ##out_U2:         14 ##out_U3:         14
#  ##count_operation: 4 ##lag_0:         14 ##lag_1:         14 ##lag_2:         13 ##lag_3:         14 ##out_U0:         29 ##out_U1:         30 ##out_U2:         13 ##out_U3:         14
#  ##count_operation: 5 ##lag_0:         14 ##lag_1:         14 ##lag_2:         13 ##lag_3:         14 ##out_U0:         29 ##out_U1:         29 ##out_U2:         13 ##out_U3:         14
#  ##count_operation: 4 ##lag_0:         13 ##lag_1:         14 ##lag_2:         14 ##lag_3:         13 ##out_U0:         27 ##out_U1:         29 ##out_U2:         14 ##out_U3:         13
#  ##count_operation: 5 ##lag_0:         13 ##lag_1:         14 ##lag_2:         14 ##lag_3:         13 ##out_U0:         27 ##out_U1:         29 ##out_U2:         14 ##out_U3:         13
quit -sim
# End time: 19:03:14 on Aug 12,2018, Elapsed time: 0:05:03
# Errors: 0, Warnings: 2
vsim -gui work.tb_all
# vsim -gui work.tb_all 
# Start time: 19:09:55 on Aug 12,2018
# Loading work.tb_all
# Loading work.signal_generator
# Loading work.sig16b_to_double
# Loading work.lag_generator
# Loading work.fpu
# Loading work.fpu_add
# Loading work.fpu_sub
# Loading work.fpu_mul
# Loading work.fpu_div
# Loading work.fpu_round
# Loading work.fpu_exceptions
# Loading work.echo_approx
add wave -position insertpoint sim:/tb_all/*
# ** Warning: (vsim-WLF-5000) WLF file currently in use: vsim.wlf
#           File in use by: ankai  Hostname: LAPTOP-VQG426F9  ProcessID: 7896
#           Attempting to use alternate WLF file "./wlftknzgcf".
# ** Warning: (vsim-WLF-5001) Could not open WLF file: vsim.wlf
#           Using alternate file: ./wlftknzgcf
add wave -position insertpoint sim:/tb_all/MUT3/*
run
#  ##count_operation: 4 ##lag_0:         14 ##lag_1:         14 ##lag_2: 4294966273 ##lag_3:          x ##out_U0:          x ##out_U1:          x ##out_U2: 4294966273 ##out_U3:          x
#  ##count_operation: 5 ##lag_0:         14 ##lag_1:         14 ##lag_2: 4294966273 ##lag_3:          x ##out_U0:          x ##out_U1:          x ##out_U2: 4294966273 ##out_U3:          x
run
#  ##count_operation: 4 ##lag_0:         13 ##lag_1:         14 ##lag_2:         14 ##lag_3: 4294966273 ##out_U0:         14 ##out_U1:         29 ##out_U2:         14 ##out_U3: 4294966273
#  ##count_operation: 5 ##lag_0:         13 ##lag_1:         14 ##lag_2:         14 ##lag_3: 4294966273 ##out_U0:         14 ##out_U1:         29 ##out_U2:         14 ##out_U3: 4294966273
#  ##count_operation: 4 ##lag_0:         14 ##lag_1:         13 ##lag_2:         14 ##lag_3:         14 ##out_U0:         28 ##out_U1:         30 ##out_U2:         14 ##out_U3:         14
#  ##count_operation: 5 ##lag_0:         14 ##lag_1:         13 ##lag_2:         14 ##lag_3:         14 ##out_U0:         28 ##out_U1:         30 ##out_U2:         14 ##out_U3:         14
#  ##count_operation: 4 ##lag_0:         13 ##lag_1:         14 ##lag_2:         13 ##lag_3:         14 ##out_U0:         29 ##out_U1:         30 ##out_U2:         13 ##out_U3:         14
#  ##count_operation: 5 ##lag_0:         13 ##lag_1:         14 ##lag_2:         13 ##lag_3:         14 ##out_U0:         29 ##out_U1:         30 ##out_U2:         13 ##out_U3:         14
#  ##count_operation: 4 ##lag_0:         14 ##lag_1:         13 ##lag_2:         14 ##lag_3:         13 ##out_U0:         27 ##out_U1:         29 ##out_U2:         14 ##out_U3:         13
#  ##count_operation: 5 ##lag_0:         14 ##lag_1:         13 ##lag_2:         14 ##lag_3:         13 ##out_U0:         27 ##out_U1:         28 ##out_U2:         14 ##out_U3:         13
#  ##count_operation: 4 ##lag_0:         14 ##lag_1:         14 ##lag_2:         13 ##lag_3:         14 ##out_U0:         29 ##out_U1:         30 ##out_U2:         13 ##out_U3:         14
#  ##count_operation: 5 ##lag_0:         14 ##lag_1:         14 ##lag_2:         13 ##lag_3:         14 ##out_U0:         29 ##out_U1:         29 ##out_U2:         13 ##out_U3:         14
run
#  ##count_operation: 4 ##lag_0:         14 ##lag_1:         14 ##lag_2:         14 ##lag_3:         13 ##out_U0:         26 ##out_U1:         30 ##out_U2:         14 ##out_U3:         13
#  ##count_operation: 5 ##lag_0:         14 ##lag_1:         14 ##lag_2:         14 ##lag_3:         13 ##out_U0:         26 ##out_U1:         30 ##out_U2:         14 ##out_U3:         13
#  ##count_operation: 4 ##lag_0:         13 ##lag_1:         14 ##lag_2:         14 ##lag_3:         14 ##out_U0:         28 ##out_U1:         30 ##out_U2:         14 ##out_U3:         14
#  ##count_operation: 5 ##lag_0:         13 ##lag_1:         14 ##lag_2:         14 ##lag_3:         14 ##out_U0:         28 ##out_U1:         30 ##out_U2:         14 ##out_U3:         14
#  ##count_operation: 4 ##lag_0:         14 ##lag_1:         13 ##lag_2:         14 ##lag_3:         14 ##out_U0:         29 ##out_U1:         30 ##out_U2:         14 ##out_U3:         14
#  ##count_operation: 5 ##lag_0:         14 ##lag_1:         13 ##lag_2:         14 ##lag_3:         14 ##out_U0:         29 ##out_U1:         29 ##out_U2:         14 ##out_U3:         14
#  ##count_operation: 4 ##lag_0:         14 ##lag_1:         14 ##lag_2:         13 ##lag_3:         14 ##out_U0:         29 ##out_U1:         30 ##out_U2:         13 ##out_U3:         14
#  ##count_operation: 5 ##lag_0:         14 ##lag_1:         14 ##lag_2:         13 ##lag_3:         14 ##out_U0:         29 ##out_U1:         29 ##out_U2:         13 ##out_U3:         14
#  ##count_operation: 4 ##lag_0:         13 ##lag_1:         14 ##lag_2:         14 ##lag_3:         13 ##out_U0:         27 ##out_U1:         29 ##out_U2:         14 ##out_U3:         13
#  ##count_operation: 5 ##lag_0:         13 ##lag_1:         14 ##lag_2:         14 ##lag_3:         13 ##out_U0:         27 ##out_U1:         29 ##out_U2:         14 ##out_U3:         13
# WARNING: No extended dataflow license exists
# Error: invalid command name "::.main_pane.dataflow.interior.cs.body.pw.df.c"
# Error: invalid command name "::.main_pane.dataflow.interior.cs.body.pw.df.c"
# Error: invalid command name "::.main_pane.dataflow.interior.cs.body.pw.df.c"
# Error: invalid command name "::.main_pane.dataflow.interior.cs.body.pw.df.c"
quit -sim
# End time: 19:15:09 on Aug 12,2018, Elapsed time: 0:05:14
# Errors: 4, Warnings: 3
# Compile of lag_generator.v was successful.
# Compile of echo_approx.v was successful.
# 2 compiles, 0 failed with no errors.
# Compile of tb_all.v was successful.
# Compile of lag_generator.v was successful.
# Compile of echo_approx.v was successful.
# 3 compiles, 0 failed with no errors.
vsim -gui work.tb_all
# vsim -gui work.tb_all 
# Start time: 20:52:52 on Aug 12,2018
# Loading work.tb_all
# Loading work.signal_generator
# Loading work.sig16b_to_double
# Loading work.lag_generator
# Loading work.fpu
# Loading work.fpu_add
# Loading work.fpu_sub
# Loading work.fpu_mul
# Loading work.fpu_div
# Loading work.fpu_round
# Loading work.fpu_exceptions
# Loading work.echo_approx
add wave -position insertpoint sim:/tb_all/*
# ** Warning: (vsim-WLF-5000) WLF file currently in use: vsim.wlf
#           File in use by: ankai  Hostname: LAPTOP-VQG426F9  ProcessID: 7896
#           Attempting to use alternate WLF file "./wlft4v4yfa".
# ** Warning: (vsim-WLF-5001) Could not open WLF file: vsim.wlf
#           Using alternate file: ./wlft4v4yfa
run
run
run
run
run
run
restart
add wave -position insertpoint sim:/tb_all/MUT3/*
run
# GetModuleFileName: The specified module could not be found.
# 
# 
run
run
run
run
quit -sim
# End time: 20:57:42 on Aug 12,2018, Elapsed time: 0:04:50
# Errors: 0, Warnings: 2
# Compile of tb_all.v was successful.
# Load canceled
vsim -gui work.tb_all
# vsim -gui work.tb_all 
# Start time: 20:58:38 on Aug 12,2018
# Loading work.tb_all
# Loading work.signal_generator
# Loading work.sig16b_to_double
# Loading work.lag_generator
# Loading work.fpu
# Loading work.fpu_add
# Loading work.fpu_sub
# Loading work.fpu_mul
# Loading work.fpu_div
# Loading work.fpu_round
# Loading work.fpu_exceptions
# Loading work.echo_approx
add wave -position insertpoint sim:/tb_all/*
# ** Warning: (vsim-WLF-5000) WLF file currently in use: vsim.wlf
#           File in use by: ankai  Hostname: LAPTOP-VQG426F9  ProcessID: 7896
#           Attempting to use alternate WLF file "./wlftcw022w".
# ** Warning: (vsim-WLF-5001) Could not open WLF file: vsim.wlf
#           Using alternate file: ./wlftcw022w
run
run
#  ##count_operation: 4 ##lag_0:         13 ##lag_1:         14 ##lag_2:         13 ##lag_3:         14 ##out_U0:         29 ##out_U1:         30 ##out_U2:         13 ##out_U3:         14
#  ##count_operation: 5 ##lag_0:         13 ##lag_1:         14 ##lag_2:         13 ##lag_3:         14 ##out_U0:         29 ##out_U1:         30 ##out_U2:         13 ##out_U3:         14
#  ##count_operation: 4 ##lag_0:         14 ##lag_1:         13 ##lag_2:         14 ##lag_3:         13 ##out_U0:         27 ##out_U1:         29 ##out_U2:         14 ##out_U3:         13
#  ##count_operation: 5 ##lag_0:         14 ##lag_1:         13 ##lag_2:         14 ##lag_3:         13 ##out_U0:         27 ##out_U1:         28 ##out_U2:         14 ##out_U3:         13
#  ##count_operation: 4 ##lag_0:         14 ##lag_1:         14 ##lag_2:         13 ##lag_3:         14 ##out_U0:         29 ##out_U1:         30 ##out_U2:         13 ##out_U3:         14
#  ##count_operation: 5 ##lag_0:         14 ##lag_1:         14 ##lag_2:         13 ##lag_3:         14 ##out_U0:         29 ##out_U1:         29 ##out_U2:         13 ##out_U3:         14
run
#  ##count_operation: 4 ##lag_0:         14 ##lag_1:         14 ##lag_2:         14 ##lag_3:         13 ##out_U0:         26 ##out_U1:         30 ##out_U2:         14 ##out_U3:         13
#  ##count_operation: 5 ##lag_0:         14 ##lag_1:         14 ##lag_2:         14 ##lag_3:         13 ##out_U0:         26 ##out_U1:         30 ##out_U2:         14 ##out_U3:         13
#  ##count_operation: 4 ##lag_0:         13 ##lag_1:         14 ##lag_2:         14 ##lag_3:         14 ##out_U0:         28 ##out_U1:         30 ##out_U2:         14 ##out_U3:         14
#  ##count_operation: 5 ##lag_0:         13 ##lag_1:         14 ##lag_2:         14 ##lag_3:         14 ##out_U0:         28 ##out_U1:         30 ##out_U2:         14 ##out_U3:         14
#  ##count_operation: 4 ##lag_0:         14 ##lag_1:         13 ##lag_2:         14 ##lag_3:         14 ##out_U0:         29 ##out_U1:         30 ##out_U2:         14 ##out_U3:         14
#  ##count_operation: 5 ##lag_0:         14 ##lag_1:         13 ##lag_2:         14 ##lag_3:         14 ##out_U0:         29 ##out_U1:         29 ##out_U2:         14 ##out_U3:         14
#  ##count_operation: 4 ##lag_0:         14 ##lag_1:         14 ##lag_2:         13 ##lag_3:         14 ##out_U0:         29 ##out_U1:         30 ##out_U2:         13 ##out_U3:         14
#  ##count_operation: 5 ##lag_0:         14 ##lag_1:         14 ##lag_2:         13 ##lag_3:         14 ##out_U0:         29 ##out_U1:         29 ##out_U2:         13 ##out_U3:         14
#  ##count_operation: 4 ##lag_0:         13 ##lag_1:         14 ##lag_2:         14 ##lag_3:         13 ##out_U0:         27 ##out_U1:         29 ##out_U2:         14 ##out_U3:         13
#  ##count_operation: 5 ##lag_0:         13 ##lag_1:         14 ##lag_2:         14 ##lag_3:         13 ##out_U0:         27 ##out_U1:         29 ##out_U2:         14 ##out_U3:         13
run
#  ##count_operation: 4 ##lag_0:         14 ##lag_1:         13 ##lag_2:         14 ##lag_3:         14 ##out_U0:         28 ##out_U1:         30 ##out_U2:         14 ##out_U3:         14
#  ##count_operation: 5 ##lag_0:         14 ##lag_1:         13 ##lag_2:         14 ##lag_3:         14 ##out_U0:         28 ##out_U1:         29 ##out_U2:         14 ##out_U3:         14
#  ##count_operation: 4 ##lag_0:         14 ##lag_1:         14 ##lag_2:         13 ##lag_3:         14 ##out_U0:         28 ##out_U1:         30 ##out_U2:         13 ##out_U3:         14
#  ##count_operation: 5 ##lag_0:         14 ##lag_1:         14 ##lag_2:         13 ##lag_3:         14 ##out_U0:         28 ##out_U1:         30 ##out_U2:         13 ##out_U3:         14
#  ##count_operation: 4 ##lag_0:         14 ##lag_1:         14 ##lag_2:         14 ##lag_3:         13 ##out_U0:         27 ##out_U1:         30 ##out_U2:         14 ##out_U3:         13
#  ##count_operation: 5 ##lag_0:         14 ##lag_1:         14 ##lag_2:         14 ##lag_3:         13 ##out_U0:         27 ##out_U1:         30 ##out_U2:         14 ##out_U3:         13
#  ##count_operation: 4 ##lag_0:         11 ##lag_1:         14 ##lag_2:         14 ##lag_3:         14 ##out_U0:         29 ##out_U1:         30 ##out_U2:         14 ##out_U3:         14
#  ##count_operation: 5 ##lag_0:         11 ##lag_1:         14 ##lag_2:         14 ##lag_3:         14 ##out_U0:         29 ##out_U1:         29 ##out_U2:         14 ##out_U3:         14
#  ##count_operation: 4 ##lag_0:         12 ##lag_1:         11 ##lag_2:         14 ##lag_3:         14 ##out_U0:         28 ##out_U1:         28 ##out_U2:         14 ##out_U3:         14
#  ##count_operation: 5 ##lag_0:         12 ##lag_1:         11 ##lag_2:         14 ##lag_3:         14 ##out_U0:         28 ##out_U1:         24 ##out_U2:         14 ##out_U3:         14
run
#  ##count_operation: 4 ##lag_0:         14 ##lag_1:         12 ##lag_2:         11 ##lag_3:         14 ##out_U0:         29 ##out_U1:         30 ##out_U2:         11 ##out_U3:         14
#  ##count_operation: 5 ##lag_0:         14 ##lag_1:         12 ##lag_2:         11 ##lag_3:         14 ##out_U0:         29 ##out_U1:         29 ##out_U2:         11 ##out_U3:         14
#  ##count_operation: 4 ##lag_0:         12 ##lag_1:         14 ##lag_2:         12 ##lag_3:         11 ##out_U0:         22 ##out_U1:         29 ##out_U2:         12 ##out_U3:         11
#  ##count_operation: 5 ##lag_0:         12 ##lag_1:         14 ##lag_2:         12 ##lag_3:         11 ##out_U0:         22 ##out_U1:         29 ##out_U2:         12 ##out_U3:         11
#  ##count_operation: 4 ##lag_0:         13 ##lag_1:         12 ##lag_2:         14 ##lag_3:         12 ##out_U0:         24 ##out_U1:         28 ##out_U2:         14 ##out_U3:         12
#  ##count_operation: 5 ##lag_0:         13 ##lag_1:         12 ##lag_2:         14 ##lag_3:         12 ##out_U0:         24 ##out_U1:         27 ##out_U2:         14 ##out_U3:         12
#  ##count_operation: 4 ##lag_0:         13 ##lag_1:         13 ##lag_2:         12 ##lag_3:         14 ##out_U0:         29 ##out_U1:         29 ##out_U2:         12 ##out_U3:         14
#  ##count_operation: 5 ##lag_0:         13 ##lag_1:         13 ##lag_2:         12 ##lag_3:         14 ##out_U0:         29 ##out_U1:         28 ##out_U2:         12 ##out_U3:         14
#  ##count_operation: 4 ##lag_0:         14 ##lag_1:         13 ##lag_2:         13 ##lag_3:         12 ##out_U0:         25 ##out_U1:         29 ##out_U2:         13 ##out_U3:         12
#  ##count_operation: 5 ##lag_0:         14 ##lag_1:         13 ##lag_2:         13 ##lag_3:         12 ##out_U0:         25 ##out_U1:         29 ##out_U2:         13 ##out_U3:         12
quit -sim
# End time: 21:07:22 on Aug 12,2018, Elapsed time: 0:08:44
# Errors: 0, Warnings: 2
# Compile of tb_all.v was successful.
vsim -gui work.tb_all
# vsim -gui work.tb_all 
# Start time: 21:08:12 on Aug 12,2018
# Loading work.tb_all
# Loading work.signal_generator
# Loading work.sig16b_to_double
# Loading work.lag_generator
# Loading work.fpu
# Loading work.fpu_add
# Loading work.fpu_sub
