transcript
# Reading D:/WORKING_FOLDER/echo_cancelation/modelsim_ase/tcl/vsim/pref.tcl
# OpenFile D:/WORKING_FOLDER/echo_cancelation/A_code/echo_cancelation.mpf
# Loading project echo_cancelation
# Compile of tb_all.v was successful.
vsim -gui work.tb_all
# vsim -gui work.tb_all 
# Start time: 12:01:54 on Aug 24,2018
# Loading work.tb_all
# Loading work.signal_generator
# Loading work.sig16b_to_double
# Loading work.lag_generator
# Loading work.fpu
# Loading work.fpu_add
# Loading work.fpu_sub
# Loading work.fpu_mul
# Loading work.fpu_div
# Loading work.fpu_round
# Loading work.fpu_exceptions
# Loading work.para_approx
# Loading work.echo_cancelation
# Loading work.double_to_sig16b
add wave -position insertpoint sim:/tb_all/*
# ** Warning: (vsim-WLF-5000) WLF file currently in use: vsim.wlf
#           File in use by: ankai  Hostname: LAPTOP-VQG426F9  ProcessID: 7896
#           Attempting to use alternate WLF file "./wlft4zz97r".
# ** Warning: (vsim-WLF-5001) Could not open WLF file: vsim.wlf
#           Using alternate file: ./wlft4zz97r
add wave -position insertpoint sim:/tb_all/MUT4/*
run
##e: 1100000010110110011000000111111000010000001101111101000011010111##e_exp:   12##normalize_amp: 0100000111011011001101000111101100000010010100000000000000000000##normalize_amp:  4745444335289368576
##e: 1100000011000011100101010111110101110010001111001011011001111001##e_exp:   13##normalize_amp: 0100000111000010111100100000001000001010101000000000000000000000##normalize_amp:  4738615848529297408
##e: 1100000011010101110000001010100011101101100100110001111010101001##e_exp:   14##normalize_amp: 0100000111011101101111111111111101100000100100000000000000000000##normalize_amp:  4746160685875986432
##e: 1100000011100000011101011100001001000011011010110110011000111110##e_exp:   15##normalize_amp: 0100000111010111011111011011000011001011010100000000000000000000##normalize_amp:  4744398930736840704
##e: 1100000011001101101110110101001111000001101101010111111000111011##e_exp:   13##normalize_amp: 0100000111010101100001100011111011010011010100000000000000000000##normalize_amp:  4743845386896015360
##e: 1100000011001100100000010100010001000101101011011100101110110011##e_exp:   13##normalize_amp: 0100000111010010111100011111100001010000010100000000000000000000##normalize_amp:  4743119406376157184
##e: 0100000010100001101011100001000100011110011000101100001100010100##e_exp:   11##normalize_amp: 0100000111011000011111010110100011000010110100000000000000000000##normalize_amp:  4744680096333299712
##e: 1100000010110000101011011011011000110111100011010010100010101000##e_exp:   12##normalize_amp: 0100000111000111101110000111101000001101101000000000000000000000##normalize_amp:  4739959967184846848
##e: 0100000010111010010110100111111110101100110010101010000111011100##e_exp:   12##normalize_amp: 0100000111010101110001001010110101110110110100000000000000000000##normalize_amp:  4743914031806414848
##e: 0100000011001000010101000100111000111010000111101011111000101011##e_exp:   13##normalize_amp: 0100000111011001001010110101011000100010110100000000000000000000##normalize_amp:  4744871331362766848
##e: 1100000010110001001001001101101010000000100000111000001110101000##e_exp:   12##normalize_amp: 0100000111010101001011111011111010110011100100000000000000000000##normalize_amp:  4743750278607536128
##e: 0100000001101111110101011110111001000100001110000010011000000000##e_exp:    7##normalize_amp: 0100000111011001110000001101000001010110010100000000000000000000##normalize_amp:  4745035683445342208
##e: 1100000010010000001010000111101001010110010101001000011010000000##e_exp:   10##normalize_amp: 0100000110111010100000100100010111000010010000000000000000000000##normalize_amp:  4736241194256826368
quit -sim
# End time: 12:02:27 on Aug 24,2018, Elapsed time: 0:00:33
# Errors: 0, Warnings: 2
# Compile of tb_all.v was successful.
vsim -gui work.tb_all
# vsim -gui work.tb_all 
# Start time: 12:03:01 on Aug 24,2018
# Loading work.tb_all
# Loading work.signal_generator
# Loading work.sig16b_to_double
# Loading work.lag_generator
# Loading work.fpu
# Loading work.fpu_add
# Loading work.fpu_sub
# Loading work.fpu_mul
# Loading work.fpu_div
# Loading work.fpu_round
# Loading work.fpu_exceptions
# Loading work.para_approx
# Loading work.echo_cancelation
# Loading work.double_to_sig16b
add wave -position insertpoint sim:/tb_all/*
# ** Warning: (vsim-WLF-5000) WLF file currently in use: vsim.wlf
#           File in use by: ankai  Hostname: LAPTOP-VQG426F9  ProcessID: 7896
#           Attempting to use alternate WLF file "./wlftydi5k0".
# ** Warning: (vsim-WLF-5001) Could not open WLF file: vsim.wlf
#           Using alternate file: ./wlftydi5k0
add wave -position insertpoint sim:/tb_all/MUT4/*
run
##e: 1100000010110110011000000111111000010000001101111101000011010111##e_exp:   12##normalize_amp: 0100000111011011001101000111101100000010010100000000000000000000##normalize_amp:  4745444335289368576
##e: 1100000011000011100101010111110101110010001111001011011001111001##e_exp:   13##normalize_amp: 0100000111000010111100100000001000001010101000000000000000000000##normalize_amp:  4738615848529297408
##e: 1100000011010101110000001010100011101101100100110001111010101001##e_exp:   14##normalize_amp: 0100000111011101101111111111111101100000100100000000000000000000##normalize_amp:  4746160685875986432
##e: 1100000011100000011101011100001001000011011010110110011000111110##e_exp:   15##normalize_amp: 0100000111010111011111011011000011001011010100000000000000000000##normalize_amp:  4744398930736840704
##e: 1100000011001101101110110101001111000001101101010111111000111011##e_exp:   13##normalize_amp: 0100000111010101100001100011111011010011010100000000000000000000##normalize_amp:  4743845386896015360
##e: 1100000011001100100000010100010001000101101011011100101110110011##e_exp:   13##normalize_amp: 0100000111010010111100011111100001010000010100000000000000000000##normalize_amp:  4743119406376157184
##e: 0100000010100001101011100001000100011110011000101100001100010100##e_exp:   11##normalize_amp: 0100000111011000011111010110100011000010110100000000000000000000##normalize_amp:  4744680096333299712
##e: 1100000010110000101011011011011000110111100011010010100010101000##e_exp:   12##normalize_amp: 0100000111000111101110000111101000001101101000000000000000000000##normalize_amp:  4739959967184846848
##e: 0100000010111010010110100111111110101100110010101010000111011100##e_exp:   12##normalize_amp: 0100000111010101110001001010110101110110110100000000000000000000##normalize_amp:  4743914031806414848
##e: 0100000011001000010101000100111000111010000111101011111000101011##e_exp:   13##normalize_amp: 0100000111011001001010110101011000100010110100000000000000000000##normalize_amp:  4744871331362766848
##e: 1100000010110001001001001101101010000000100000111000001110101000##e_exp:   12##normalize_amp: 0100000111010101001011111011111010110011100100000000000000000000##normalize_amp:  4743750278607536128
##e: 0100000001101111110101011110111001000100001110000010011000000000##e_exp:    7##normalize_amp: 0100000111011001110000001101000001010110010100000000000000000000##normalize_amp:  4745035683445342208
##e: 1100000010010000001010000111101001010110010101001000011010000000##e_exp:   10##normalize_amp: 0100000110111010100000100100010111000010010000000000000000000000##normalize_amp:  4736241194256826368
run
##e: 1100000001100010001011101111101001001110101000110010001010000000##e_exp:    7##normalize_amp: 0100000111010101000011110111001101100000010100000000000000000000##normalize_amp:  4743714770716196864
run
restart
add wave -position insertpoint sim:/tb_all/MUT3/*
run
##e: 1100000010110110011000000111111000010000001101111101000011010111##e_exp:   12##normalize_amp: 0100000111011011001101000111101100000010010100000000000000000000##normalize_amp:  4745444335289368576
##e: 1100000011000011100101010111110101110010001111001011011001111001##e_exp:   13##normalize_amp: 0100000111000010111100100000001000001010101000000000000000000000##normalize_amp:  4738615848529297408
##e: 1100000011010101110000001010100011101101100100110001111010101001##e_exp:   14##normalize_amp: 0100000111011101101111111111111101100000100100000000000000000000##normalize_amp:  4746160685875986432
##e: 1100000011100000011101011100001001000011011010110110011000111110##e_exp:   15##normalize_amp: 0100000111010111011111011011000011001011010100000000000000000000##normalize_amp:  4744398930736840704
##e: 1100000011001101101110110101001111000001101101010111111000111011##e_exp:   13##normalize_amp: 0100000111010101100001100011111011010011010100000000000000000000##normalize_amp:  4743845386896015360
##e: 1100000011001100100000010100010001000101101011011100101110110011##e_exp:   13##normalize_amp: 0100000111010010111100011111100001010000010100000000000000000000##normalize_amp:  4743119406376157184
##e: 0100000010100001101011100001000100011110011000101100001100010100##e_exp:   11##normalize_amp: 0100000111011000011111010110100011000010110100000000000000000000##normalize_amp:  4744680096333299712
##e: 1100000010110000101011011011011000110111100011010010100010101000##e_exp:   12##normalize_amp: 0100000111000111101110000111101000001101101000000000000000000000##normalize_amp:  4739959967184846848
##e: 0100000010111010010110100111111110101100110010101010000111011100##e_exp:   12##normalize_amp: 0100000111010101110001001010110101110110110100000000000000000000##normalize_amp:  4743914031806414848
##e: 0100000011001000010101000100111000111010000111101011111000101011##e_exp:   13##normalize_amp: 0100000111011001001010110101011000100010110100000000000000000000##normalize_amp:  4744871331362766848
##e: 1100000010110001001001001101101010000000100000111000001110101000##e_exp:   12##normalize_amp: 0100000111010101001011111011111010110011100100000000000000000000##normalize_amp:  4743750278607536128
##e: 0100000001101111110101011110111001000100001110000010011000000000##e_exp:    7##normalize_amp: 0100000111011001110000001101000001010110010100000000000000000000##normalize_amp:  4745035683445342208
##e: 1100000010010000001010000111101001010110010101001000011010000000##e_exp:   10##normalize_amp: 0100000110111010100000100100010111000010010000000000000000000000##normalize_amp:  4736241194256826368
restart
add wave -position insertpoint sim:/tb_all/MUT4/*
run
##e: 1100000010110110011000000111111000010000001101111101000011010111##e_exp:   12##normalize_amp: 0100000111011011001101000111101100000010010100000000000000000000##normalize_amp:  4745444335289368576
##e: 1100000011000011100101010111110101110010001111001011011001111001##e_exp:   13##normalize_amp: 0100000111000010111100100000001000001010101000000000000000000000##normalize_amp:  4738615848529297408
##e: 1100000011010101110000001010100011101101100100110001111010101001##e_exp:   14##normalize_amp: 0100000111011101101111111111111101100000100100000000000000000000##normalize_amp:  4746160685875986432
##e: 1100000011100000011101011100001001000011011010110110011000111110##e_exp:   15##normalize_amp: 0100000111010111011111011011000011001011010100000000000000000000##normalize_amp:  4744398930736840704
##e: 1100000011001101101110110101001111000001101101010111111000111011##e_exp:   13##normalize_amp: 0100000111010101100001100011111011010011010100000000000000000000##normalize_amp:  4743845386896015360
##e: 1100000011001100100000010100010001000101101011011100101110110011##e_exp:   13##normalize_amp: 0100000111010010111100011111100001010000010100000000000000000000##normalize_amp:  4743119406376157184
##e: 0100000010100001101011100001000100011110011000101100001100010100##e_exp:   11##normalize_amp: 0100000111011000011111010110100011000010110100000000000000000000##normalize_amp:  4744680096333299712
##e: 1100000010110000101011011011011000110111100011010010100010101000##e_exp:   12##normalize_amp: 0100000111000111101110000111101000001101101000000000000000000000##normalize_amp:  4739959967184846848
##e: 0100000010111010010110100111111110101100110010101010000111011100##e_exp:   12##normalize_amp: 0100000111010101110001001010110101110110110100000000000000000000##normalize_amp:  4743914031806414848
##e: 0100000011001000010101000100111000111010000111101011111000101011##e_exp:   13##normalize_amp: 0100000111011001001010110101011000100010110100000000000000000000##normalize_amp:  4744871331362766848
##e: 1100000010110001001001001101101010000000100000111000001110101000##e_exp:   12##normalize_amp: 0100000111010101001011111011111010110011100100000000000000000000##normalize_amp:  4743750278607536128
##e: 0100000001101111110101011110111001000100001110000010011000000000##e_exp:    7##normalize_amp: 0100000111011001110000001101000001010110010100000000000000000000##normalize_amp:  4745035683445342208
##e: 1100000010010000001010000111101001010110010101001000011010000000##e_exp:   10##normalize_amp: 0100000110111010100000100100010111000010010000000000000000000000##normalize_amp:  4736241194256826368
run
##e: 1100000001100010001011101111101001001110101000110010001010000000##e_exp:    7##normalize_amp: 0100000111010101000011110111001101100000010100000000000000000000##normalize_amp:  4743714770716196864
quit -sim
# End time: 12:25:49 on Aug 24,2018, Elapsed time: 0:22:48
# Errors: 0, Warnings: 2
# Compile of tb_all.v was successful.
# Compile of double_to_sig16b.v was successful.
# Compile of echo_cancelation.v was successful.
# 3 compiles, 0 failed with no errors.
vsim -gui work.tb_all
# vsim -gui work.tb_all 
# Start time: 12:29:26 on Aug 24,2018
# Loading work.tb_all
# Loading work.signal_generator
# Loading work.sig16b_to_double
# Loading work.lag_generator
# Loading work.fpu
# Loading work.fpu_add
# Loading work.fpu_sub
# Loading work.fpu_mul
# Loading work.fpu_div
# Loading work.fpu_round
# Loading work.fpu_exceptions
# Loading work.para_approx
# Loading work.echo_cancelation
# Loading work.double_to_sig16b
add wave -position insertpoint sim:/tb_all/*
# ** Warning: (vsim-WLF-5000) WLF file currently in use: vsim.wlf
#           File in use by: ankai  Hostname: LAPTOP-VQG426F9  ProcessID: 7896
#           Attempting to use alternate WLF file "./wlftnaqms8".
# ** Warning: (vsim-WLF-5001) Could not open WLF file: vsim.wlf
#           Using alternate file: ./wlftnaqms8
add wave -position insertpoint sim:/tb_all/MUT4/*
run
##e: 1100000010110110011000000111111000010000001101111101000011010111##e_exp:   12##normalize_amp: 0100000111011011001101000111101100000010010100000000000000000000##normalize_amp:  4745444335289368576
##e: 1100000011000011100101010111110101110010001111001011011001111001##e_exp:   13##normalize_amp: 0100000111000010111100100000001000001010101000000000000000000000##normalize_amp:  4738615848529297408
##e: 1100000011010101110000001010100011101101100100110001111010101001##e_exp:   14##normalize_amp: 0100000111011101101111111111111101100000100100000000000000000000##normalize_amp:  4746160685875986432
##e: 1100000011100000011101011100001001000011011010110110011000111110##e_exp:   15##normalize_amp: 0100000111010111011111011011000011001011010100000000000000000000##normalize_amp:  4744398930736840704
##e: 1100000011001101101110110101001111000001101101010111111000111011##e_exp:   13##normalize_amp: 0100000111010101100001100011111011010011010100000000000000000000##normalize_amp:  4743845386896015360
##e: 1100000011001100100000010100010001000101101011011100101110110011##e_exp:   13##normalize_amp: 0100000111010010111100011111100001010000010100000000000000000000##normalize_amp:  4743119406376157184
##e: 0100000010100001101011100001000100011110011000101100001100010100##e_exp:   11##normalize_amp: 0100000111011000011111010110100011000010110100000000000000000000##normalize_amp:  4744680096333299712
##e: 1100000010110000101011011011011000110111100011010010100010101000##e_exp:   12##normalize_amp: 0100000111000111101110000111101000001101101000000000000000000000##normalize_amp:  4739959967184846848
##e: 0100000010111010010110100111111110101100110010101010000111011100##e_exp:   12##normalize_amp: 0100000111010101110001001010110101110110110100000000000000000000##normalize_amp:  4743914031806414848
##e: 0100000011001000010101000100111000111010000111101011111000101011##e_exp:   13##normalize_amp: 0100000111011001001010110101011000100010110100000000000000000000##normalize_amp:  4744871331362766848
##e: 1100000010110001001001001101101010000000100000111000001110101000##e_exp:   12##normalize_amp: 0100000111010101001011111011111010110011100100000000000000000000##normalize_amp:  4743750278607536128
##e: 0100000001101111110101011110111001000100001110000010011000000000##e_exp:    7##normalize_amp: 0100000111011001110000001101000001010110010100000000000000000000##normalize_amp:  4745035683445342208
##e: 1100000010010000001010000111101001010110010101001000011010000000##e_exp:   10##normalize_amp: 0100000110111010100000100100010111000010010000000000000000000000##normalize_amp:  4736241194256826368
run
##e: 1100000001100010001011101111101001001110101000110010001010000000##e_exp:    7##normalize_amp: 0100000111010101000011110111001101100000010100000000000000000000##normalize_amp:  4743714770716196864
quit -sim
# End time: 12:32:22 on Aug 24,2018, Elapsed time: 0:02:56
# Errors: 0, Warnings: 2
# Compile of tb_all.v was successful.
vsim -gui work.tb_all
# vsim -gui work.tb_all 
# Start time: 12:32:47 on Aug 24,2018
# Loading work.tb_all
# Loading work.signal_generator
# Loading work.sig16b_to_double
# Loading work.lag_generator
# Loading work.fpu
# Loading work.fpu_add
# Loading work.fpu_sub
# Loading work.fpu_mul
# Loading work.fpu_div
# Loading work.fpu_round
# Loading work.fpu_exceptions
# Loading work.para_approx
# Loading work.echo_cancelation
# Loading work.double_to_sig16b
add wave -position insertpoint sim:/tb_all/*
# ** Warning: (vsim-WLF-5000) WLF file currently in use: vsim.wlf
#           File in use by: ankai  Hostname: LAPTOP-VQG426F9  ProcessID: 7896
#           Attempting to use alternate WLF file "./wlftnchfbw".
# ** Warning: (vsim-WLF-5001) Could not open WLF file: vsim.wlf
#           Using alternate file: ./wlftnchfbw
add wave -position insertpoint sim:/tb_all/MUT4/*
run
##e: 1100000010110110011000000111111000010000001101111101000011010111##e_exp:   12##normalize_amp: 0100000111011011001101000111101100000010010100000000000000000000##normalize_amp:  4745444335289368576
##e: 1100000011000011100101010111110101110010001111001011011001111001##e_exp:   13##normalize_amp: 0100000111000010111100100000001000001010101000000000000000000000##normalize_amp:  4738615848529297408
##e: 1100000011010101110000001010100011101101100100110001111010101001##e_exp:   14##normalize_amp: 0100000111011101101111111111111101100000100100000000000000000000##normalize_amp:  4746160685875986432
##e: 1100000011100000011101011100001001000011011010110110011000111110##e_exp:   15##normalize_amp: 0100000111010111011111011011000011001011010100000000000000000000##normalize_amp:  4744398930736840704
##e: 1100000011001101101110110101001111000001101101010111111000111011##e_exp:   13##normalize_amp: 0100000111010101100001100011111011010011010100000000000000000000##normalize_amp:  4743845386896015360
##e: 1100000011001100100000010100010001000101101011011100101110110011##e_exp:   13##normalize_amp: 0100000111010010111100011111100001010000010100000000000000000000##normalize_amp:  4743119406376157184
##e: 0100000010100001101011100001000100011110011000101100001100010100##e_exp:   11##normalize_amp: 0100000111011000011111010110100011000010110100000000000000000000##normalize_amp:  4744680096333299712
##e: 1100000010110000101011011011011000110111100011010010100010101000##e_exp:   12##normalize_amp: 0100000111000111101110000111101000001101101000000000000000000000##normalize_amp:  4739959967184846848
##e: 0100000010111010010110100111111110101100110010101010000111011100##e_exp:   12##normalize_amp: 0100000111010101110001001010110101110110110100000000000000000000##normalize_amp:  4743914031806414848
##e: 0100000011001000010101000100111000111010000111101011111000101011##e_exp:   13##normalize_amp: 0100000111011001001010110101011000100010110100000000000000000000##normalize_amp:  4744871331362766848
##e: 1100000010110001001001001101101010000000100000111000001110101000##e_exp:   12##normalize_amp: 0100000111010101001011111011111010110011100100000000000000000000##normalize_amp:  4743750278607536128
##e: 0100000001101111110101011110111001000100001110000010011000000000##e_exp:    7##normalize_amp: 0100000111011001110000001101000001010110010100000000000000000000##normalize_amp:  4745035683445342208
##e: 1100000010010000001010000111101001010110010101001000011010000000##e_exp:   10##normalize_amp: 0100000110111010100000100100010111000010010000000000000000000000##normalize_amp:  4736241194256826368
##e: 1100000001100010001011101111101001001110101000110010001010000000##e_exp:    7##normalize_amp: 0100000111010101000011110111001101100000010100000000000000000000##normalize_amp:  4743714770716196864
##e: 0100000010010111011110100011010010010000000000111111010001100100##e_exp:   10##normalize_amp: 0100000111000010100010100110011001100000101000000000000000000000##normalize_amp:  4738501930259578880
##e: 0100000010010010001101111010000010011000001101001001100001001000##e_exp:   10##normalize_amp: 0100000110110000101101010101100110011001010000000000000000000000##normalize_amp:  4733482604794216448
##e: 1100000010100010101100110000010010000000011011101011000000110110##e_exp:   11##normalize_amp: 0100000111001110011101100011100100101111101000000000000000000000##normalize_amp:  4741857445651939328
##e: 0100000010011101101101011111000001111010010000000010111101010100##e_exp:   10##normalize_amp: 0100000111001000111011111111100011000001001000000000000000000000##normalize_amp:  4740302459478474752
##e: 0100000001100101111101110100101110011010010111101111001110000000##e_exp:    7##normalize_amp: 0100000111001000111000101010110110011001001000000000000000000000##normalize_amp:  4740287843033677824
##e: 1100000010001100111100001101001000001011111001110101111101010000##e_exp:    9##normalize_amp: 0100000111010011110111111000011001110011100100000000000000000000##normalize_amp:  4743380601108692992
##e: 0100000010000101111100111110111110010110110101011111001111100000##e_exp:    9##normalize_amp: 0100000111011011001001100000000001001101010100000000000000000000##normalize_amp:  4745428415103893504
##e: 0100000010001100001100000001101010110011111010110011000110010000##e_exp:    9##normalize_amp: 0100000111001110111011000111111101001101101000000000000000000000##normalize_amp:  4741987489175044096
##e: 0100000010011110101010110101011011101011001100010110110001010000##e_exp:   10##normalize_amp: 0100000111011000000101111110110001100101100100000000000000000000##normalize_amp:  4744568511518474240
##e: 1100000001010001101010100010010000100110100001011101100010000000##e_exp:    6##normalize_amp: 0100000111010000000100001110110010100000110100000000000000000000##normalize_amp:  4742309016117444608
##e: 0100000001110100011000000010101100001000001011000111011111000000##e_exp:    8##normalize_amp: 0100000111011011001000011011100010110101110100000000000000000000##normalize_amp:  4745423709572956160
##e: 1100000001110110111100001100100000010101111000011010111010000000##e_exp:    8##normalize_amp: 0100000111001100000110100100000000001101101000000000000000000000##normalize_amp:  4741193370123108352
##e: 1100000001011101000010110010011100111010111001111001100110000000##e_exp:    6##normalize_amp: 0100000111010110011000110101111010001000110100000000000000000000##normalize_amp:  4744088515154804736
##e: 1100000001010110001011111110001100110111111100010010110010000000##e_exp:    6##normalize_amp: 0100000111001001111101111010011101110010101000000000000000000000##normalize_amp:  4740592381338845184
##e: 0100000001100000010100000000110000000110111100100001111111000000##e_exp:    7##normalize_amp: 0100000111001010010011011111010010111110001000000000000000000000##normalize_amp:  4740687271317995520
##e: 1100000001100110011100011100001000100101011011001100101110000000##e_exp:    7##normalize_amp: 0100000111010010101010100101001101110011000100000000000000000000##normalize_amp:  4743040632963989504
##e: 0100000001101001011001001001101010111000111100001100010111000000##e_exp:    7##normalize_amp: 0100000110111100000001101101101001100101010000000000000000000000##normalize_amp:  4736668443158249472
##e: 0100000000000100101001101001110100100010101110111111100000000000##e_exp:    1##normalize_amp: 0100000111000010001110111111000110010100101000000000000000000000##normalize_amp:  4738415666713853952
##e: 0100000001010000100101110111101101010011011101111101010010000000##e_exp:    6##normalize_amp: 0100000110111110100100110100101000101011010000000000000000000000##normalize_amp:  4737385804802818048
##e: 1100000001010110011110101111001000101000101111101000001001000000##e_exp:    6##normalize_amp: 0100000110100111110101001001111110100100100000000000000000000000##normalize_amp:  4730983715700736000
##e: 1100000000100111111110111010111001111111010000101001100000000000##e_exp:    3##normalize_amp: 0100000111000100100110001000010000010011101000000000000000000000##normalize_amp:  4739080400932962304
##e: 1100000001001111011100100000010110101010011011001111000000000000##e_exp:    5##normalize_amp: 0100000111000111001100110010101001100011101000000000000000000000##normalize_amp:  4739813389983809536
##e: 1100000000000101100010110001000010110011110000100010000000000000##e_exp:    1##normalize_amp: 0100000111000000001110110000110010011111101000000000000000000000##normalize_amp:  4737851733397471232
##e: 1100000001011111111011011101001110100101010011100100011010000000##e_exp:    6##normalize_amp: 0100000111010110001010110011001110111111000100000000000000000000##normalize_amp:  4744026758730219520
##e: 0100000001001010011100011010110100010000101010111011100000000000##e_exp:    5##normalize_amp: 0100000111001110001101111011000110000001001000000000000000000000##normalize_amp:  4741788693182808064
##e: 0100000001010001000110110111011010010110010110010011100010000000##e_exp:    6##normalize_amp: 0100000110110011010100010111101100010010010000000000000000000000##normalize_amp:  4734217222325534720
##e: 1100000001000101011101001011100001101010000011001000101000000000##e_exp:    5##normalize_amp: 0100000111010110110101110111010101100001010100000000000000000000##normalize_amp:  4744216156625174528
##e: 1100000001011111001110010110110100001000001111110111100000000000##e_exp:    6##normalize_amp: 0100000111011010010111101111100110010011010100000000000000000000##normalize_amp:  4745209583399600128
##e: 1100000000111010101010111010011001011000100110010101100000000000##e_exp:    4##normalize_amp: 0100000111010111110011001101111100111011010100000000000000000000##normalize_amp:  4744485991602978816
##e: 1100000001011111000111000001000111010100011010101111000100000000##e_exp:    6##normalize_amp: 0100000111010111001101001001100001101011110100000000000000000000##normalize_amp:  4744318561706573824
##e: 0100000001010011111010110101101001010011001111111101110010000000##e_exp:    6##normalize_amp: 0100000111011001010001001001101100011010110100000000000000000000##normalize_amp:  4744899115371986944
##e: 0100000001001010110100111000111010001010110111010111001000000000##e_exp:    5##normalize_amp: 0100000111010011000100001101101001001001110100000000000000000000##normalize_amp:  4743153362278547456
##e: 1100000001010111000010100001010000111100100011111110011000000000##e_exp:    6##normalize_amp: 0100000111010001110011011111000010101010000100000000000000000000##normalize_amp:  4742798316126863360
##e: 1100000001010000010011010100001111000100111010110110101010000000##e_exp:    6##normalize_amp: 0100000111010001111001010000000111001000110100000000000000000000##normalize_amp:  4742823678424645632
##e: 1100000001000010111110111000111010111001000000101010000110000000##e_exp:    5##normalize_amp: 0100000111010100011101100001011000011111000100000000000000000000##normalize_amp:  4743546144910475264
##e: 0100000001001100001001110010101010100011111011000101111000000000##e_exp:    5##normalize_amp: 0100000110101101101010001001110111010000100000000000000000000000##normalize_amp:  4732624179197640704
##e: 1100000001010000010100011001111101010111101111110000110100000000##e_exp:    6##normalize_amp: 0100000111011001000111000001101010010011000100000000000000000000##normalize_amp:  4744854582873554944
##e: 1100000000000011011111011100111001011010100000000110000000000000##e_exp:    1##normalize_amp: 0100000111001100110011110001111110011001101000000000000000000000##normalize_amp:  4741392242342625280
##e: 1100000001100101110110111010101100110000001001111010001010000000##e_exp:    7##normalize_amp: 0100000111001001110000100011001010101110001000000000000000000000##normalize_amp:  4740533605709643776
##e: 0100000001000000100001000011100111000101000110100000110100000000##e_exp:    5##normalize_amp: 0100000111010110111110001000001000110001010100000000000000000000##normalize_amp:  4744252495538159616
##e: 1100000001100011101101010111110100111011011100100100011010000000##e_exp:    7##normalize_amp: 0100000111000110011101010111000111000010001000000000000000000000##normalize_amp:  4739604789302657024
##e: 0100000001001010011011111001100010110101111100010111101100000000##e_exp:    5##normalize_amp: 0100000111011110000100001011101101110110110100000000000000000000##normalize_amp:  4746249454633353216
##e: 1100000001100011000001011010011110010000111111010010011100000000##e_exp:    7##normalize_amp: 0100000111010101110000110011011011010100010100000000000000000000##normalize_amp:  4743912422762348544
##e: 0100000000110101011011101011111001100000101011000110100000000000##e_exp:    4##normalize_amp: 0100000111011100101000001111000001001000010100000000000000000000##normalize_amp:  4745845061207457792
##e: 1100000001011011010100110010110110010100100111000100010000000000##e_exp:    6##normalize_amp: 0100000111010111110011011010001110011000100100000000000000000000##normalize_amp:  4744486834981044224
##e: 1100000001001100101001011011101101011101111111000101011000000000##e_exp:    5##normalize_amp: 0100000111010011100100001110100100010111000100000000000000000000##normalize_amp:  4743294163339968512
##e: 0100000001000101011001101100101011000001100100110001100110000000##e_exp:    5##normalize_amp: 0100000111000011101010011100011100000010101000000000000000000000##normalize_amp:  4738817905131520000
##e: 0100000000111010011001001101010111011011110101011010000100000000##e_exp:    4##normalize_amp: 0100000110110111111000111100110001000100010000000000000000000000##normalize_amp:  4735503999661244416
##e: 1100000000110011101011101101010011110101000110110001101000000000##e_exp:    4##normalize_amp: 0100000111001101001010000010110000100010001000000000000000000000##normalize_amp:  4741490152707194880
##e: 1100000001010000111010011100101011101111000110111001000100000000##e_exp:    6##normalize_amp: 0100000111011011101101101001110010011111110100000000000000000000##normalize_amp:  4745587416177311744
##e: 1100000001001001010011111101000010010101101001101110101000000000##e_exp:    5##normalize_amp: 0100000111001110110110001110000000101011101000000000000000000000##normalize_amp:  4741965914983890944
##e: 1100000001000110100101001100100100011010101001011101011000000000##e_exp:    5##normalize_amp: 0100000111010000111111001000111001000101110100000000000000000000##normalize_amp:  4742568095607947264
##e: 1100000000111010100111011011011000000101101000001111100000000000##e_exp:    4##normalize_amp: 0100000111010110010001000101111011111001100100000000000000000000##normalize_amp:  4744054432185974784
##e: 1100000000101110100011100011100010111001011101111111001000000000##e_exp:    3##normalize_amp: 0100000110100110001111100101001100011100100000000000000000000000##normalize_amp:  4730536985280643072
##e: 1100000000101100000010000101011001100010110011100011110000000000##e_exp:    3##normalize_amp: 0100000111010001011011000111100100111110110100000000000000000000##normalize_amp:  4742691150598504448
##e: 1100000001000111001010011100101001101101111110010001110000000000##e_exp:    5##normalize_amp: 0100000111010100101000111000111011110111110100000000000000000000##normalize_amp:  4743596141966262272
##e: 1100000000011111100100010010001110001101111101010101000000000000##e_exp:    2##normalize_amp: 0100000111001000010000101000001011000111001000000000000000000000##normalize_amp:  4740111737261391872
##e: 1100000000110101001101101010100100100110000011110110101000000000##e_exp:    4##normalize_amp: 0100000111011111001001111111101001100101010100000000000000000000##normalize_amp:  4746556488666841088
##e: 0100000000111111101001011110001111101110110100001011000000000000##e_exp:    4##normalize_amp: 0100000111010010100000110110010010011111110100000000000000000000##normalize_amp:  4742997825775730688
##e: 0100000000001101111111100111000010001100000101011001000000000000##e_exp:    1##normalize_amp: 0100000111010010011010100110001011001100110100000000000000000000##normalize_amp:  4742970330150076416
##e: 1100000000100010011101001101000110000010010110110000000000000000##e_exp:    3##normalize_amp: 0100000111011001101011100110011111010000110100000000000000000000##normalize_amp:  4745015443319685120
##e: 1100000000100101011101100011001100101101001000101001110000000000##e_exp:    3##normalize_amp: 0100000110101110010101111110010000000110100000000000000000000000##normalize_amp:  4732816895286181888
##e: 0100000000111111111011110011001001111100101011011101000000000000##e_exp:    4##normalize_amp: 0100000111011101011100100010001110111101100100000000000000000000##normalize_amp:  4746075080148123648
##e: 1100000001000110111011011000100100111110000000101111010110000000##e_exp:    5##normalize_amp: 0100000111010110000100100110101110110011100100000000000000000000##normalize_amp:  4743999511264755712
##e: 0011111111100000001100010010110101110110100000100100000000000000##e_exp: 2047##normalize_amp: 0100000110111011000011000001001010011100010000000000000000000000##normalize_amp:  4736392707180593152
##e: 0100000000101001101110011011000110011100000010011011101000000000##e_exp:    3##normalize_amp: 0100000111010000001010011001001111110110000100000000000000000000##normalize_amp:  4742336123086307328
##e: 1011111111111100011010110101100001010111000100100110000000000000##e_exp:    0##normalize_amp: 0100000110111000000000110101111101000100010000000000000000000000##normalize_amp:  4735538715881897984
##e: 0011111111111000001111011101011101111110111000011011100000000000##e_exp:    0##normalize_amp: 0100000110010010001101111100011010101101000000000000000000000000##normalize_amp:  4724900285510582272
##e: 1100000000000110110100100001011100111110110111101100000000000000##e_exp:    1##normalize_amp: 0100000110100111001101110110001011100000100000000000000000000000##normalize_amp:  4730810831388803072
##e: 1100000000010111111110110000000010100100101101001010000000000000##e_exp:    2##normalize_amp: 0100000110111011010010001100100111010100010000000000000000000000##normalize_amp:  4736459464796798976
##e: 1100000000011100010101000011101001011111101001100111000000000000##e_exp:    2##normalize_amp: 0100000111001101101101110111100110000010001000000000000000000000##normalize_amp:  4741647715193061376
##e: 1100000000011110010000000100011110101101001101111100000000000000##e_exp:    2##normalize_amp: 0100000111001100001010001001001000011111101000000000000000000000##normalize_amp:  4741209115775205376
##e: 0100000000011110010110001011111001111100111001100011100000000000##e_exp:    2##normalize_amp: 0100000110110100110010010010000001000011010000000000000000000000##normalize_amp:  4734630248677638144
